# MagicaVoxel @ Ephtracy

# group
g greenMonk

# material
mtllib greenMonk.mtl
usemtl palette

# normals
vn -1 0 0
vn 1 0 0
vn 0 0 1
vn 0 0 -1
vn 0 -1 0
vn 0 1 0

# texcoords
vt 0.0332031 0.5
vt 0.724609 0.5
vt 0.845703 0.5
vt 0.912109 0.5
vt 0.994141 0.5

# verts
v -11 12 2
v -11 12 -3
v -11 15 -2
v -11 15 -3
v -11 22 2
v -11 22 -2
v -10 10 1
v -10 10 -1
v -10 12 1
v -10 12 -1
v -9 12 -3
v -9 12 -4
v -9 13 3
v -9 13 2
v -9 14 -3
v -9 14 -4
v -9 15 -2
v -9 15 -3
v -9 22 2
v -9 22 -2
v -9 23 3
v -9 23 -3
v -8 13 4
v -8 13 3
v -8 14 -3
v -8 14 -4
v -8 23 3
v -8 23 -3
v -8 24 4
v -8 24 -4
v -7 1 6
v -7 1 -6
v -7 12 2
v -7 12 -4
v -7 13 4
v -7 13 2
v -7 24 4
v -7 24 -4
v -7 26 6
v -7 26 -6
v -7 30 1
v -7 30 -1
v -7 32 1
v -7 32 -1
v -6 1 7
v -6 1 6
v -6 1 -6
v -6 1 -7
v -6 16 7
v -6 16 6
v -6 24 -7
v -6 24 -8
v -6 26 -6
v -6 26 -8
v -6 27 3
v -6 27 -3
v -6 28 4
v -6 28 3
v -6 28 -3
v -6 28 -4
v -6 30 1
v -6 30 -1
v -6 32 1
v -6 32 -1
v -6 34 4
v -6 34 3
v -6 34 -3
v -6 34 -4
v -6 35 3
v -6 35 -3
v -5 19 -7
v -5 19 -9
v -5 24 -7
v -5 24 -8
v -5 25 -8
v -5 25 -9
v -5 27 5
v -5 27 3
v -5 27 -3
v -5 27 -6
v -5 28 4
v -5 28 3
v -5 28 -3
v -5 28 -4
v -5 29 6
v -5 29 5
v -5 34 6
v -5 34 5
v -5 34 4
v -5 34 3
v -5 34 -3
v -5 34 -4
v -5 35 3
v -5 35 -3
v -5 35 -5
v -5 35 -6
v -5 36 5
v -5 36 -5
v -4 19 -9
v -4 19 -10
v -4 24 -9
v -4 24 -10
v -4 28 6
v -4 28 5
v -4 29 6
v -4 29 5
v -4 32 7
v -4 32 6
v -4 33 7
v -4 33 6
v -4 34 6
v -4 34 5
v -4 35 6
v -4 35 5
v -4 36 4
v -4 36 -4
v -4 37 4
v -4 37 -4
v -3 16 7
v -3 16 6
v -3 18 -9
v -3 18 -10
v -3 19 -9
v -3 19 -10
v -3 20 7
v -3 20 6
v -3 26 3
v -3 26 -3
v -3 27 6
v -3 27 5
v -3 27 3
v -3 27 -3
v -3 28 6
v -3 28 5
v -3 31 7
v -3 31 6
v -3 32 7
v -3 32 6
v -3 37 3
v -3 37 -3
v -3 38 3
v -3 38 -3
v -2 17 -7
v -2 17 -10
v -2 18 -9
v -2 18 -10
v -2 19 -7
v -2 19 -9
v 0 20 7
v 0 20 6
v 0 23 7
v 0 23 6
v 1 32 7
v 1 32 6
v 1 33 7
v 1 33 6
v 2 31 7
v 2 31 6
v 2 32 7
v 2 32 6
v 3 21 -7
v 3 21 -10
v 3 22 -8
v 3 22 -10
v 3 23 7
v 3 23 6
v 3 24 -7
v 3 24 -8
v 3 26 7
v 3 26 6
v 3 26 5
v 3 26 3
v 3 26 -3
v 3 26 -4
v 3 27 6
v 3 27 5
v 3 27 3
v 3 27 -3
v 3 27 -4
v 4 22 -8
v 4 22 -10
v 4 24 -7
v 4 24 -8
v 4 24 -9
v 4 24 -10
v 4 25 -8
v 4 25 -9
v 4 26 -7
v 4 26 -8
v 6 26 -4
v 6 26 -6
v 6 27 -4
v 6 27 -6
v 8 10 2
v 8 10 -0
v 8 12 2
v 8 12 -0
v -8 10 1
v -8 10 -1
v -8 12 1
v -8 12 -1
v -4 25 -7
v -4 25 -8
v -4 26 -7
v -4 26 -8
v -3 23 -8
v -3 23 -10
v -3 24 -9
v -3 24 -10
v -3 25 -8
v -3 25 -9
v -2 21 -7
v -2 21 -10
v -2 23 -8
v -2 23 -10
v -2 25 -7
v -2 25 -8
v -2 31 7
v -2 31 6
v -2 32 7
v -2 32 6
v -1 32 7
v -1 32 6
v -1 33 7
v -1 33 6
v 3 17 -7
v 3 17 -10
v 3 18 -9
v 3 18 -10
v 3 19 -7
v 3 19 -9
v 3 27 6
v 3 27 5
v 3 28 6
v 3 28 5
v 3 31 7
v 3 31 6
v 3 32 7
v 3 32 6
v 3 37 3
v 3 37 -3
v 3 38 3
v 3 38 -3
v 4 18 -9
v 4 18 -10
v 4 19 -9
v 4 19 -10
v 4 28 6
v 4 28 5
v 4 29 6
v 4 29 5
v 4 32 7
v 4 32 6
v 4 33 7
v 4 33 6
v 4 34 6
v 4 34 5
v 4 35 6
v 4 35 5
v 4 36 4
v 4 36 -4
v 4 37 4
v 4 37 -4
v 5 19 -9
v 5 19 -10
v 5 24 -9
v 5 24 -10
v 5 27 5
v 5 27 3
v 5 27 -3
v 5 27 -4
v 5 27 -6
v 5 28 4
v 5 28 3
v 5 28 -3
v 5 28 -4
v 5 29 6
v 5 29 5
v 5 29 4
v 5 29 -4
v 5 29 -5
v 5 33 5
v 5 33 4
v 5 33 -4
v 5 33 -5
v 5 34 6
v 5 34 5
v 5 34 4
v 5 34 3
v 5 34 -3
v 5 34 -4
v 5 35 3
v 5 35 -3
v 5 35 -5
v 5 35 -6
v 5 36 5
v 5 36 -5
v 6 1 7
v 6 1 6
v 6 1 -6
v 6 1 -7
v 6 19 -7
v 6 19 -9
v 6 22 -6
v 6 22 -8
v 6 25 -8
v 6 25 -9
v 6 26 7
v 6 26 6
v 6 27 3
v 6 27 -3
v 6 28 4
v 6 28 3
v 6 28 -3
v 6 28 -4
v 6 29 5
v 6 29 4
v 6 29 -4
v 6 29 -5
v 6 30 1
v 6 30 -1
v 6 32 1
v 6 32 -1
v 6 33 5
v 6 33 4
v 6 33 -4
v 6 33 -5
v 6 34 4
v 6 34 3
v 6 34 -3
v 6 34 -4
v 6 35 3
v 6 35 -3
v 7 1 6
v 7 1 -6
v 7 12 3
v 7 12 -2
v 7 13 4
v 7 13 3
v 7 13 -2
v 7 13 -3
v 7 21 4
v 7 21 3
v 7 21 -2
v 7 21 -3
v 7 22 5
v 7 22 3
v 7 22 -2
v 7 22 -4
v 7 22 -6
v 7 22 -8
v 7 24 6
v 7 24 5
v 7 24 -4
v 7 24 -6
v 7 26 -6
v 7 26 -8
v 7 30 1
v 7 30 -1
v 7 32 1
v 7 32 -1
v 8 13 4
v 8 13 3
v 8 13 -2
v 8 13 -3
v 8 21 4
v 8 21 3
v 8 21 -2
v 8 21 -3
v 8 22 5
v 8 22 3
v 8 22 -2
v 8 22 -4
v 8 24 6
v 8 24 5
v 8 24 3
v 8 24 -2
v 8 24 -4
v 8 24 -6
v 8 27 6
v 8 27 -6
v 9 22 3
v 9 22 -2
v 9 24 3
v 9 24 -2
v 10 10 2
v 10 10 -0
v 10 12 2
v 10 12 -0
v 10 20 3
v 10 20 -2
v 10 22 3
v 10 22 -2
v 11 12 3
v 11 12 -2
v 11 20 3
v 11 20 -2
v -6 1 7
v -6 16 7
v -4 32 7
v -4 33 7
v -3 16 7
v -3 20 7
v -3 31 7
v -3 32 7
v -2 31 7
v -2 32 7
v -1 32 7
v -1 33 7
v 0 20 7
v 0 23 7
v 1 32 7
v 1 33 7
v 2 31 7
v 2 32 7
v 3 23 7
v 3 26 7
v 3 31 7
v 3 32 7
v 4 32 7
v 4 33 7
v 6 1 7
v 6 26 7
v -7 1 6
v -7 26 6
v -6 1 6
v -6 16 6
v -5 29 6
v -5 34 6
v -4 28 6
v -4 29 6
v -4 32 6
v -4 33 6
v -4 34 6
v -4 35 6
v -3 16 6
v -3 20 6
v -3 27 6
v -3 28 6
v -3 31 6
v -3 32 6
v -2 31 6
v -2 32 6
v -1 32 6
v -1 33 6
v 0 20 6
v 0 23 6
v 1 32 6
v 1 33 6
v 2 31 6
v 2 32 6
v 3 23 6
v 3 26 6
v 3 27 6
v 3 28 6
v 3 31 6
v 3 32 6
v 4 28 6
v 4 29 6
v 4 32 6
v 4 33 6
v 4 34 6
v 4 35 6
v 5 29 6
v 5 34 6
v 6 1 6
v 6 26 6
v 7 1 6
v 7 24 6
v 8 24 6
v 8 27 6
v -5 27 5
v -5 29 5
v -5 34 5
v -5 36 5
v -4 28 5
v -4 29 5
v -4 34 5
v -4 35 5
v -3 27 5
v -3 28 5
v 3 27 5
v 3 28 5
v 4 28 5
v 4 29 5
v 4 34 5
v 4 35 5
v 5 27 5
v 5 29 5
v 5 33 5
v 5 34 5
v 5 36 5
v 6 29 5
v 6 33 5
v 7 22 5
v 7 24 5
v 8 22 5
v 8 24 5
v -8 13 4
v -8 24 4
v -7 13 4
v -7 24 4
v -6 28 4
v -6 34 4
v -5 28 4
v -5 34 4
v -4 36 4
v -4 37 4
v 4 36 4
v 4 37 4
v 5 28 4
v 5 29 4
v 5 33 4
v 5 34 4
v 6 28 4
v 6 29 4
v 6 33 4
v 6 34 4
v 7 13 4
v 7 21 4
v 8 13 4
v 8 21 4
v -9 13 3
v -9 23 3
v -8 13 3
v -8 23 3
v -6 27 3
v -6 28 3
v -6 34 3
v -6 35 3
v -5 27 3
v -5 28 3
v -5 34 3
v -5 35 3
v -3 26 3
v -3 27 3
v -3 37 3
v -3 38 3
v 3 26 3
v 3 27 3
v 3 37 3
v 3 38 3
v 5 27 3
v 5 28 3
v 5 34 3
v 5 35 3
v 6 27 3
v 6 28 3
v 6 34 3
v 6 35 3
v 7 12 3
v 7 13 3
v 7 21 3
v 7 22 3
v 8 13 3
v 8 21 3
v 8 22 3
v 8 24 3
v 9 22 3
v 9 24 3
v 10 20 3
v 10 22 3
v 11 12 3
v 11 20 3
v -11 12 2
v -11 22 2
v -9 13 2
v -9 22 2
v -7 12 2
v -7 13 2
v 8 10 2
v 8 12 2
v 10 10 2
v 10 12 2
v -10 10 1
v -10 12 1
v -8 10 1
v -8 12 1
v -7 30 1
v -7 32 1
v -6 30 1
v -6 32 1
v 6 30 1
v 6 32 1
v 7 30 1
v 7 32 1
v -3 18 -9
v -3 19 -9
v -2 18 -9
v -2 19 -9
v 3 18 -9
v 3 19 -9
v 4 18 -9
v 4 19 -9
v 8 10 -0
v 8 12 -0
v 10 10 -0
v 10 12 -0
v -10 10 -1
v -10 12 -1
v -8 10 -1
v -8 12 -1
v -7 30 -1
v -7 32 -1
v -6 30 -1
v -6 32 -1
v 6 30 -1
v 6 32 -1
v 7 30 -1
v 7 32 -1
v -11 15 -2
v -11 22 -2
v -9 15 -2
v -9 22 -2
v 7 12 -2
v 7 13 -2
v 7 21 -2
v 7 22 -2
v 8 13 -2
v 8 21 -2
v 8 22 -2
v 8 24 -2
v 9 22 -2
v 9 24 -2
v 10 20 -2
v 10 22 -2
v 11 12 -2
v 11 20 -2
v -11 12 -3
v -11 15 -3
v -9 12 -3
v -9 14 -3
v -9 15 -3
v -9 23 -3
v -8 14 -3
v -8 23 -3
v -6 27 -3
v -6 28 -3
v -6 34 -3
v -6 35 -3
v -5 27 -3
v -5 28 -3
v -5 34 -3
v -5 35 -3
v -3 26 -3
v -3 27 -3
v -3 37 -3
v -3 38 -3
v 3 26 -3
v 3 27 -3
v 3 37 -3
v 3 38 -3
v 5 27 -3
v 5 28 -3
v 5 34 -3
v 5 35 -3
v 6 27 -3
v 6 28 -3
v 6 34 -3
v 6 35 -3
v 7 13 -3
v 7 21 -3
v 8 13 -3
v 8 21 -3
v -9 12 -4
v -9 14 -4
v -8 14 -4
v -8 24 -4
v -7 12 -4
v -7 24 -4
v -6 28 -4
v -6 34 -4
v -5 28 -4
v -5 34 -4
v -4 36 -4
v -4 37 -4
v 3 26 -4
v 3 27 -4
v 4 36 -4
v 4 37 -4
v 5 27 -4
v 5 28 -4
v 5 29 -4
v 5 33 -4
v 5 34 -4
v 6 26 -4
v 6 27 -4
v 6 28 -4
v 6 29 -4
v 6 33 -4
v 6 34 -4
v 7 22 -4
v 7 24 -4
v 8 22 -4
v 8 24 -4
v -5 35 -5
v -5 36 -5
v 5 29 -5
v 5 33 -5
v 5 35 -5
v 5 36 -5
v 6 29 -5
v 6 33 -5
v -7 1 -6
v -7 26 -6
v -6 1 -6
v -6 26 -6
v -5 27 -6
v -5 35 -6
v 5 27 -6
v 5 35 -6
v 6 1 -6
v 6 22 -6
v 6 26 -6
v 6 27 -6
v 7 1 -6
v 7 22 -6
v 7 24 -6
v 7 26 -6
v 8 24 -6
v 8 27 -6
v -6 1 -7
v -6 24 -7
v -5 19 -7
v -5 24 -7
v -4 25 -7
v -4 26 -7
v -2 17 -7
v -2 19 -7
v -2 21 -7
v -2 25 -7
v 3 17 -7
v 3 19 -7
v 3 21 -7
v 3 24 -7
v 4 24 -7
v 4 26 -7
v 6 1 -7
v 6 19 -7
v -6 24 -8
v -6 26 -8
v -5 24 -8
v -5 25 -8
v -4 25 -8
v -4 26 -8
v -3 23 -8
v -3 25 -8
v -2 23 -8
v -2 25 -8
v 3 22 -8
v 3 24 -8
v 4 22 -8
v 4 24 -8
v 4 25 -8
v 4 26 -8
v 6 22 -8
v 6 25 -8
v 7 22 -8
v 7 26 -8
v -5 19 -9
v -5 25 -9
v -4 19 -9
v -4 24 -9
v -3 24 -9
v -3 25 -9
v 4 24 -9
v 4 25 -9
v 5 19 -9
v 5 24 -9
v 6 19 -9
v 6 25 -9
v -4 19 -10
v -4 24 -10
v -3 18 -10
v -3 19 -10
v -3 23 -10
v -3 24 -10
v -2 17 -10
v -2 18 -10
v -2 21 -10
v -2 23 -10
v 3 17 -10
v 3 18 -10
v 3 21 -10
v 3 22 -10
v 4 18 -10
v 4 19 -10
v 4 22 -10
v 4 24 -10
v 5 19 -10
v 5 24 -10
v -6 1 7
v 6 1 7
v -7 1 6
v -6 1 6
v 6 1 6
v 7 1 6
v -7 1 -6
v -6 1 -6
v 6 1 -6
v 7 1 -6
v -6 1 -7
v 6 1 -7
v 8 10 2
v 10 10 2
v -10 10 1
v -8 10 1
v 8 10 -0
v 10 10 -0
v -10 10 -1
v -8 10 -1
v 7 12 3
v 11 12 3
v -11 12 2
v -7 12 2
v 8 12 2
v 10 12 2
v -10 12 1
v -8 12 1
v 8 12 -0
v 10 12 -0
v -10 12 -1
v -8 12 -1
v 7 12 -2
v 11 12 -2
v -11 12 -3
v -9 12 -3
v -9 12 -4
v -7 12 -4
v -8 13 4
v -7 13 4
v 7 13 4
v 8 13 4
v -9 13 3
v -8 13 3
v 7 13 3
v 8 13 3
v -9 13 2
v -7 13 2
v 7 13 -2
v 8 13 -2
v 7 13 -3
v 8 13 -3
v -2 17 -7
v 3 17 -7
v -2 17 -10
v 3 17 -10
v -3 18 -9
v -2 18 -9
v 3 18 -9
v 4 18 -9
v -3 18 -10
v -2 18 -10
v 3 18 -10
v 4 18 -10
v -5 19 -7
v -2 19 -7
v 3 19 -7
v 6 19 -7
v -5 19 -9
v -4 19 -9
v -3 19 -9
v -2 19 -9
v 3 19 -9
v 4 19 -9
v 5 19 -9
v 6 19 -9
v -4 19 -10
v -3 19 -10
v 4 19 -10
v 5 19 -10
v 7 22 5
v 8 22 5
v 7 22 3
v 8 22 3
v 7 22 -2
v 8 22 -2
v 7 22 -4
v 8 22 -4
v 6 22 -6
v 7 22 -6
v 6 22 -8
v 7 22 -8
v 7 24 6
v 8 24 6
v 7 24 5
v 8 24 5
v 7 24 -4
v 8 24 -4
v 7 24 -6
v 8 24 -6
v -6 24 -7
v -5 24 -7
v -6 24 -8
v -5 24 -8
v -3 27 6
v 3 27 6
v -5 27 5
v -3 27 5
v 3 27 5
v -6 27 3
v -5 27 3
v -3 27 3
v 3 27 3
v -6 27 -3
v -5 27 -3
v -3 27 -3
v 3 27 -3
v 3 27 -4
v 5 27 -4
v -5 27 -6
v 5 27 -6
v -4 28 6
v -3 28 6
v 3 28 6
v 4 28 6
v -4 28 5
v -3 28 5
v 3 28 5
v 4 28 5
v -6 28 4
v -5 28 4
v 5 28 4
v 6 28 4
v -6 28 3
v -5 28 3
v 5 28 3
v 6 28 3
v -6 28 -3
v -5 28 -3
v 5 28 -3
v 6 28 -3
v -6 28 -4
v -5 28 -4
v 5 28 -4
v 6 28 -4
v -5 29 6
v -4 29 6
v 4 29 6
v 5 29 6
v -5 29 5
v -4 29 5
v 4 29 5
v 5 29 5
v 6 29 5
v 5 29 4
v 6 29 4
v 5 29 -4
v 6 29 -4
v 5 29 -5
v 6 29 -5
v -7 30 1
v -6 30 1
v 6 30 1
v 7 30 1
v -7 30 -1
v -6 30 -1
v 6 30 -1
v 7 30 -1
v -3 31 7
v -2 31 7
v 2 31 7
v 3 31 7
v -3 31 6
v -2 31 6
v 2 31 6
v 3 31 6
v -4 32 7
v -3 32 7
v -2 32 7
v -1 32 7
v 1 32 7
v 2 32 7
v 3 32 7
v 4 32 7
v -4 32 6
v -3 32 6
v -2 32 6
v -1 32 6
v 1 32 6
v 2 32 6
v 3 32 6
v 4 32 6
v -9 14 -3
v -8 14 -3
v -9 14 -4
v -8 14 -4
v -11 15 -2
v -9 15 -2
v -11 15 -3
v -9 15 -3
v -6 16 7
v -3 16 7
v -6 16 6
v -3 16 6
v -3 20 7
v 0 20 7
v -3 20 6
v 0 20 6
v 10 20 3
v 11 20 3
v 10 20 -2
v 11 20 -2
v 7 21 4
v 8 21 4
v 7 21 3
v 8 21 3
v 7 21 -2
v 8 21 -2
v 7 21 -3
v 8 21 -3
v -2 21 -7
v 3 21 -7
v -2 21 -10
v 3 21 -10
v 9 22 3
v 10 22 3
v -11 22 2
v -9 22 2
v -11 22 -2
v -9 22 -2
v 9 22 -2
v 10 22 -2
v 3 22 -8
v 4 22 -8
v 3 22 -10
v 4 22 -10
v 0 23 7
v 3 23 7
v 0 23 6
v 3 23 6
v -9 23 3
v -8 23 3
v -9 23 -3
v -8 23 -3
v -3 23 -8
v -2 23 -8
v -3 23 -10
v -2 23 -10
v -8 24 4
v -7 24 4
v 8 24 3
v 9 24 3
v 8 24 -2
v 9 24 -2
v -8 24 -4
v -7 24 -4
v 3 24 -7
v 4 24 -7
v 3 24 -8
v 4 24 -8
v -4 24 -9
v -3 24 -9
v 4 24 -9
v 5 24 -9
v -4 24 -10
v -3 24 -10
v 4 24 -10
v 5 24 -10
v -4 25 -7
v -2 25 -7
v -5 25 -8
v -4 25 -8
v -3 25 -8
v -2 25 -8
v 4 25 -8
v 6 25 -8
v -5 25 -9
v -3 25 -9
v 4 25 -9
v 6 25 -9
v 3 26 7
v 6 26 7
v -7 26 6
v 3 26 6
v 6 26 6
v 3 26 5
v -3 26 3
v 3 26 3
v -3 26 -3
v 3 26 -3
v 3 26 -4
v 6 26 -4
v -7 26 -6
v -6 26 -6
v 6 26 -6
v 7 26 -6
v -4 26 -7
v 4 26 -7
v -6 26 -8
v -4 26 -8
v 4 26 -8
v 7 26 -8
v 3 27 6
v 8 27 6
v 3 27 5
v 5 27 5
v 5 27 3
v 6 27 3
v 5 27 -3
v 6 27 -3
v 5 27 -4
v 6 27 -4
v 6 27 -6
v 8 27 -6
v -7 32 1
v -6 32 1
v 6 32 1
v 7 32 1
v -7 32 -1
v -6 32 -1
v 6 32 -1
v 7 32 -1
v -4 33 7
v -1 33 7
v 1 33 7
v 4 33 7
v -4 33 6
v -1 33 6
v 1 33 6
v 4 33 6
v 5 33 5
v 6 33 5
v 5 33 4
v 6 33 4
v 5 33 -4
v 6 33 -4
v 5 33 -5
v 6 33 -5
v -5 34 6
v -4 34 6
v 4 34 6
v 5 34 6
v -5 34 5
v -4 34 5
v 4 34 5
v 5 34 5
v -6 34 4
v -5 34 4
v 5 34 4
v 6 34 4
v -6 34 3
v -5 34 3
v 5 34 3
v 6 34 3
v -6 34 -3
v -5 34 -3
v 5 34 -3
v 6 34 -3
v -6 34 -4
v -5 34 -4
v 5 34 -4
v 6 34 -4
v -4 35 6
v 4 35 6
v -4 35 5
v 4 35 5
v -6 35 3
v -5 35 3
v 5 35 3
v 6 35 3
v -6 35 -3
v -5 35 -3
v 5 35 -3
v 6 35 -3
v -5 35 -5
v 5 35 -5
v -5 35 -6
v 5 35 -6
v -5 36 5
v 5 36 5
v -4 36 4
v 4 36 4
v -4 36 -4
v 4 36 -4
v -5 36 -5
v 5 36 -5
v -4 37 4
v 4 37 4
v -3 37 3
v 3 37 3
v -3 37 -3
v 3 37 -3
v -4 37 -4
v 4 37 -4
v -3 38 3
v 3 38 3
v -3 38 -3
v 3 38 -3

# faces
f 3/2/1 2/2/1 1/2/1
f 4/2/1 2/2/1 3/2/1
f 5/2/1 3/2/1 1/2/1
f 6/2/1 3/2/1 5/2/1
f 9/1/1 8/1/1 7/1/1
f 10/1/1 8/1/1 9/1/1
f 15/2/1 12/2/1 11/2/1
f 16/2/1 12/2/1 15/2/1
f 19/2/1 14/2/1 13/2/1
f 20/2/1 18/2/1 17/2/1
f 21/2/1 19/2/1 13/2/1
f 21/2/1 20/2/1 19/2/1
f 22/2/1 18/2/1 20/2/1
f 22/2/1 20/2/1 21/2/1
f 27/2/1 24/2/1 23/2/1
f 28/2/1 26/2/1 25/2/1
f 29/2/1 27/2/1 23/2/1
f 29/2/1 28/2/1 27/2/1
f 30/2/1 26/2/1 28/2/1
f 30/2/1 28/2/1 29/2/1
f 33/2/1 32/2/1 31/2/1
f 34/2/1 32/2/1 33/2/1
f 35/2/1 33/2/1 31/2/1
f 36/2/1 33/2/1 35/2/1
f 37/2/1 35/2/1 31/2/1
f 38/2/1 32/2/1 34/2/1
f 39/2/1 37/2/1 31/2/1
f 39/2/1 38/2/1 37/2/1
f 40/2/1 32/2/1 38/2/1
f 40/2/1 38/2/1 39/2/1
f 43/1/1 42/1/1 41/1/1
f 44/1/1 42/1/1 43/1/1
f 49/2/1 46/2/1 45/2/1
f 50/2/1 46/2/1 49/2/1
f 51/2/1 48/2/1 47/2/1
f 53/2/1 51/2/1 47/2/1
f 53/2/1 52/2/1 51/2/1
f 54/2/1 52/2/1 53/2/1
f 58/1/1 56/1/1 55/1/1
f 59/1/1 56/1/1 58/1/1
f 61/1/1 58/1/1 57/1/1
f 61/1/1 60/1/1 59/1/1
f 61/1/1 59/1/1 58/1/1
f 62/1/1 60/1/1 61/1/1
f 63/1/1 61/1/1 57/1/1
f 64/1/1 60/1/1 62/1/1
f 65/1/1 63/1/1 57/1/1
f 65/1/1 64/1/1 63/1/1
f 66/1/1 64/1/1 65/1/1
f 67/1/1 60/1/1 64/1/1
f 67/1/1 64/1/1 66/1/1
f 68/1/1 60/1/1 67/1/1
f 69/1/1 67/1/1 66/1/1
f 70/1/1 67/1/1 69/1/1
f 73/2/1 72/2/1 71/2/1
f 74/2/1 72/2/1 73/2/1
f 75/2/1 72/2/1 74/2/1
f 76/2/1 72/2/1 75/2/1
f 81/1/1 78/1/1 77/1/1
f 82/1/1 78/1/1 81/1/1
f 83/1/1 80/1/1 79/1/1
f 84/1/1 80/1/1 83/1/1
f 86/1/1 81/1/1 77/1/1
f 87/1/1 86/1/1 85/1/1
f 88/1/1 81/1/1 86/1/1
f 88/1/1 86/1/1 87/1/1
f 89/1/1 81/1/1 88/1/1
f 92/1/1 80/1/1 84/1/1
f 93/1/1 90/1/1 89/1/1
f 93/1/1 89/1/1 88/1/1
f 94/1/1 92/1/1 91/1/1
f 95/1/1 80/1/1 92/1/1
f 95/1/1 92/1/1 94/1/1
f 96/1/1 80/1/1 95/1/1
f 97/1/1 93/1/1 88/1/1
f 97/1/1 94/1/1 93/1/1
f 97/1/1 95/1/1 94/1/1
f 98/1/1 95/1/1 97/1/1
f 101/2/1 100/2/1 99/2/1
f 102/2/1 100/2/1 101/2/1
f 105/1/1 104/1/1 103/1/1
f 106/1/1 104/1/1 105/1/1
f 109/4/1 108/4/1 107/4/1
f 110/4/1 108/4/1 109/4/1
f 113/1/1 112/1/1 111/1/1
f 114/1/1 112/1/1 113/1/1
f 117/1/1 116/1/1 115/1/1
f 118/1/1 116/1/1 117/1/1
f 123/2/1 122/2/1 121/2/1
f 124/2/1 122/2/1 123/2/1
f 125/2/1 120/2/1 119/2/1
f 126/2/1 120/2/1 125/2/1
f 131/1/1 128/1/1 127/1/1
f 132/1/1 128/1/1 131/1/1
f 133/1/1 130/1/1 129/1/1
f 134/1/1 130/1/1 133/1/1
f 137/5/1 136/5/1 135/5/1
f 138/5/1 136/5/1 137/5/1
f 141/1/1 140/1/1 139/1/1
f 142/1/1 140/1/1 141/1/1
f 145/2/1 144/2/1 143/2/1
f 146/2/1 144/2/1 145/2/1
f 147/2/1 145/2/1 143/2/1
f 148/2/1 145/2/1 147/2/1
f 151/2/1 150/2/1 149/2/1
f 152/2/1 150/2/1 151/2/1
f 155/4/1 154/4/1 153/4/1
f 156/4/1 154/4/1 155/4/1
f 159/5/1 158/5/1 157/5/1
f 160/5/1 158/5/1 159/5/1
f 163/2/1 162/2/1 161/2/1
f 164/2/1 162/2/1 163/2/1
f 167/2/1 163/2/1 161/2/1
f 168/2/1 163/2/1 167/2/1
f 169/2/1 166/2/1 165/2/1
f 170/2/1 166/2/1 169/2/1
f 175/2/1 171/2/1 170/2/1
f 176/3/1 172/3/1 171/3/1
f 176/2/1 171/2/1 175/2/1
f 177/3/1 172/3/1 176/3/1
f 178/2/1 174/2/1 173/2/1
f 179/2/1 174/2/1 178/2/1
f 183/2/1 181/2/1 180/2/1
f 184/2/1 181/2/1 183/2/1
f 185/2/1 181/2/1 184/2/1
f 186/2/1 183/2/1 182/2/1
f 186/2/1 184/2/1 183/2/1
f 187/2/1 184/2/1 186/2/1
f 188/2/1 186/2/1 182/2/1
f 189/2/1 186/2/1 188/2/1
f 192/2/1 191/2/1 190/2/1
f 193/2/1 191/2/1 192/2/1
f 196/1/1 195/1/1 194/1/1
f 197/1/1 195/1/1 196/1/1
f 198/1/2 199/1/2 200/1/2
f 200/1/2 199/1/2 201/1/2
f 202/2/2 203/2/2 204/2/2
f 204/2/2 203/2/2 205/2/2
f 206/2/2 207/2/2 208/2/2
f 208/2/2 207/2/2 209/2/2
f 206/2/2 208/2/2 210/2/2
f 210/2/2 208/2/2 211/2/2
f 212/2/2 213/2/2 214/2/2
f 214/2/2 213/2/2 215/2/2
f 212/2/2 214/2/2 216/2/2
f 216/2/2 214/2/2 217/2/2
f 218/5/2 219/5/2 220/5/2
f 220/5/2 219/5/2 221/5/2
f 222/4/2 223/4/2 224/4/2
f 224/4/2 223/4/2 225/4/2
f 226/2/2 227/2/2 228/2/2
f 228/2/2 227/2/2 229/2/2
f 226/2/2 228/2/2 230/2/2
f 230/2/2 228/2/2 231/2/2
f 232/1/2 233/1/2 234/1/2
f 234/1/2 233/1/2 235/1/2
f 236/5/2 237/5/2 238/5/2
f 238/5/2 237/5/2 239/5/2
f 240/1/2 241/1/2 242/1/2
f 242/1/2 241/1/2 243/1/2
f 244/2/2 245/2/2 246/2/2
f 246/2/2 245/2/2 247/2/2
f 248/1/2 249/1/2 250/1/2
f 250/1/2 249/1/2 251/1/2
f 252/4/2 253/4/2 254/4/2
f 254/4/2 253/4/2 255/4/2
f 256/1/2 257/1/2 258/1/2
f 258/1/2 257/1/2 259/1/2
f 260/1/2 261/1/2 262/1/2
f 262/1/2 261/1/2 263/1/2
f 264/2/2 265/2/2 266/2/2
f 266/2/2 265/2/2 267/2/2
f 268/1/2 269/1/2 273/1/2
f 273/1/2 269/1/2 274/1/2
f 271/1/2 272/1/2 275/1/2
f 270/1/2 271/1/2 275/1/2
f 275/1/2 272/1/2 276/1/2
f 268/1/2 273/1/2 278/1/2
f 278/1/2 273/1/2 279/1/2
f 276/1/2 272/1/2 280/1/2
f 280/1/2 272/1/2 281/1/2
f 277/1/2 278/1/2 282/1/2
f 281/1/2 272/1/2 285/1/2
f 282/1/2 283/1/2 286/1/2
f 277/1/2 282/1/2 286/1/2
f 286/1/2 283/1/2 287/1/2
f 287/1/2 283/1/2 288/1/2
f 284/1/2 285/1/2 291/1/2
f 288/1/2 289/1/2 292/1/2
f 287/1/2 288/1/2 292/1/2
f 290/1/2 291/1/2 293/1/2
f 285/1/2 272/1/2 294/1/2
f 291/1/2 285/1/2 294/1/2
f 293/1/2 291/1/2 294/1/2
f 294/1/2 272/1/2 295/1/2
f 287/1/2 292/1/2 296/1/2
f 292/1/2 293/1/2 296/1/2
f 293/1/2 294/1/2 296/1/2
f 296/1/2 294/1/2 297/1/2
f 300/2/2 301/2/2 302/2/2
f 300/2/2 302/2/2 304/2/2
f 302/2/2 303/2/2 304/2/2
f 304/2/2 303/2/2 305/2/2
f 305/2/2 303/2/2 306/2/2
f 306/2/2 303/2/2 307/2/2
f 298/2/2 299/2/2 308/2/2
f 308/2/2 299/2/2 309/2/2
f 310/1/2 311/1/2 313/1/2
f 313/1/2 311/1/2 314/1/2
f 312/1/2 313/1/2 317/1/2
f 314/1/2 315/1/2 317/1/2
f 313/1/2 314/1/2 317/1/2
f 317/1/2 315/1/2 318/1/2
f 316/1/2 317/1/2 320/1/2
f 318/1/2 319/1/2 320/1/2
f 317/1/2 318/1/2 320/1/2
f 320/1/2 319/1/2 321/1/2
f 316/1/2 320/1/2 322/1/2
f 321/1/2 319/1/2 323/1/2
f 316/1/2 322/1/2 324/1/2
f 322/1/2 323/1/2 324/1/2
f 324/1/2 323/1/2 325/1/2
f 323/1/2 319/1/2 326/1/2
f 325/1/2 323/1/2 326/1/2
f 326/1/2 319/1/2 327/1/2
f 325/1/2 326/1/2 328/1/2
f 328/1/2 326/1/2 329/1/2
f 329/1/2 326/1/2 330/1/2
f 330/1/2 326/1/2 331/1/2
f 329/1/2 330/1/2 332/1/2
f 332/1/2 330/1/2 333/1/2
f 334/2/2 335/2/2 336/2/2
f 336/2/2 335/2/2 337/2/2
f 334/2/2 336/2/2 338/2/2
f 338/2/2 336/2/2 339/2/2
f 337/2/2 335/2/2 340/2/2
f 340/2/2 335/2/2 341/2/2
f 334/2/2 338/2/2 342/2/2
f 341/2/2 335/2/2 345/2/2
f 342/2/2 343/2/2 346/2/2
f 334/2/2 342/2/2 346/2/2
f 346/2/2 343/2/2 347/2/2
f 344/2/2 345/2/2 348/2/2
f 345/2/2 335/2/2 349/2/2
f 348/2/2 345/2/2 349/2/2
f 349/2/2 335/2/2 350/2/2
f 334/2/2 346/2/2 352/2/2
f 352/2/2 346/2/2 353/2/2
f 350/2/2 351/2/2 354/2/2
f 349/2/2 350/2/2 354/2/2
f 354/2/2 351/2/2 355/2/2
f 355/2/2 351/2/2 356/2/2
f 356/2/2 351/2/2 357/2/2
f 358/1/2 359/1/2 360/1/2
f 360/1/2 359/1/2 361/1/2
f 362/2/2 363/2/2 366/2/2
f 366/2/2 363/2/2 367/2/2
f 364/2/2 365/2/2 368/2/2
f 368/2/2 365/2/2 369/2/2
f 370/2/2 371/2/2 375/2/2
f 375/2/2 371/2/2 376/2/2
f 372/2/2 373/2/2 377/2/2
f 377/2/2 373/2/2 378/2/2
f 375/2/2 376/2/2 380/2/2
f 378/2/2 379/2/2 380/2/2
f 377/2/2 378/2/2 380/2/2
f 376/2/2 377/2/2 380/2/2
f 374/2/2 375/2/2 380/2/2
f 380/2/2 379/2/2 381/2/2
f 382/2/2 383/2/2 384/2/2
f 384/2/2 383/2/2 385/2/2
f 386/1/2 387/1/2 388/1/2
f 388/1/2 387/1/2 389/1/2
f 390/2/2 391/2/2 392/2/2
f 392/2/2 391/2/2 393/2/2
f 394/2/2 395/2/2 396/2/2
f 396/2/2 395/2/2 397/2/2
f 402/2/3 399/2/3 398/2/3
f 405/4/3 401/4/3 400/4/3
f 406/5/3 405/5/3 404/5/3
f 407/4/3 401/4/3 405/4/3
f 407/5/3 405/5/3 406/5/3
f 408/4/3 401/4/3 407/4/3
f 409/4/3 401/4/3 408/4/3
f 410/2/3 403/2/3 402/2/3
f 415/4/3 413/4/3 412/4/3
f 416/2/3 411/2/3 410/2/3
f 418/5/3 415/5/3 414/5/3
f 419/4/3 413/4/3 415/4/3
f 419/5/3 415/5/3 418/5/3
f 420/4/3 413/4/3 419/4/3
f 421/4/3 413/4/3 420/4/3
f 422/2/3 402/2/3 398/2/3
f 422/2/3 410/2/3 402/2/3
f 422/2/3 417/2/3 416/2/3
f 422/2/3 416/2/3 410/2/3
f 423/2/3 417/2/3 422/2/3
f 426/2/3 425/2/3 424/2/3
f 427/2/3 425/2/3 426/2/3
f 431/1/3 429/1/3 428/1/3
f 432/1/3 429/1/3 431/1/3
f 433/1/3 429/1/3 432/1/3
f 434/1/3 429/1/3 433/1/3
f 436/2/3 425/2/3 427/2/3
f 437/2/3 425/2/3 436/2/3
f 439/1/3 431/1/3 430/1/3
f 439/1/3 432/1/3 431/1/3
f 440/1/3 432/1/3 439/1/3
f 441/1/3 432/1/3 440/1/3
f 442/1/3 439/1/3 438/1/3
f 442/1/3 440/1/3 439/1/3
f 444/1/3 443/1/3 442/1/3
f 445/1/3 435/1/3 434/1/3
f 445/1/3 434/1/3 433/1/3
f 446/2/3 425/2/3 437/2/3
f 447/2/3 425/2/3 446/2/3
f 448/1/3 444/1/3 442/1/3
f 448/1/3 445/1/3 444/1/3
f 449/1/3 435/1/3 445/1/3
f 449/1/3 445/1/3 448/1/3
f 450/1/3 442/1/3 438/1/3
f 450/1/3 448/1/3 442/1/3
f 451/1/3 448/1/3 450/1/3
f 452/2/3 425/2/3 447/2/3
f 453/2/3 425/2/3 452/2/3
f 454/1/3 450/1/3 438/1/3
f 455/1/3 450/1/3 454/1/3
f 456/1/3 450/1/3 455/1/3
f 458/1/3 457/1/3 456/1/3
f 458/1/3 456/1/3 455/1/3
f 459/1/3 457/1/3 458/1/3
f 460/1/3 457/1/3 459/1/3
f 461/1/3 435/1/3 449/1/3
f 462/1/3 435/1/3 461/1/3
f 463/1/3 435/1/3 462/1/3
f 464/1/3 460/1/3 459/1/3
f 464/1/3 462/1/3 461/1/3
f 464/1/3 461/1/3 460/1/3
f 465/1/3 462/1/3 464/1/3
f 467/2/3 454/2/3 453/2/3
f 468/2/3 467/2/3 466/2/3
f 469/2/3 467/2/3 468/2/3
f 470/2/3 467/2/3 469/2/3
f 471/2/3 454/2/3 467/2/3
f 471/2/3 467/2/3 470/2/3
f 476/1/3 473/1/3 472/1/3
f 477/1/3 473/1/3 476/1/3
f 478/1/3 475/1/3 474/1/3
f 479/1/3 475/1/3 478/1/3
f 480/1/3 476/1/3 472/1/3
f 481/1/3 476/1/3 480/1/3
f 484/1/3 483/1/3 482/1/3
f 487/1/3 475/1/3 479/1/3
f 488/1/3 485/1/3 484/1/3
f 488/1/3 484/1/3 482/1/3
f 489/1/3 485/1/3 488/1/3
f 491/1/3 487/1/3 486/1/3
f 492/1/3 475/1/3 487/1/3
f 492/1/3 487/1/3 491/1/3
f 493/1/3 490/1/3 489/1/3
f 494/1/3 490/1/3 493/1/3
f 497/2/3 496/2/3 495/2/3
f 498/2/3 496/2/3 497/2/3
f 501/2/3 500/2/3 499/2/3
f 502/2/3 500/2/3 501/2/3
f 505/1/3 504/1/3 503/1/3
f 506/1/3 504/1/3 505/1/3
f 509/1/3 508/1/3 507/1/3
f 510/1/3 508/1/3 509/1/3
f 515/1/3 512/1/3 511/1/3
f 516/1/3 512/1/3 515/1/3
f 517/1/3 514/1/3 513/1/3
f 518/1/3 514/1/3 517/1/3
f 521/2/3 520/2/3 519/2/3
f 522/2/3 520/2/3 521/2/3
f 525/2/3 524/2/3 523/2/3
f 526/2/3 524/2/3 525/2/3
f 531/1/3 528/1/3 527/1/3
f 532/1/3 528/1/3 531/1/3
f 533/1/3 530/1/3 529/1/3
f 534/1/3 530/1/3 533/1/3
f 539/1/3 536/1/3 535/1/3
f 540/1/3 536/1/3 539/1/3
f 541/1/3 538/1/3 537/1/3
f 542/1/3 538/1/3 541/1/3
f 547/1/3 544/1/3 543/1/3
f 548/1/3 544/1/3 547/1/3
f 549/1/3 546/1/3 545/1/3
f 550/1/3 546/1/3 549/1/3
f 555/2/3 552/2/3 551/2/3
f 556/2/3 554/2/3 553/2/3
f 557/2/3 554/2/3 556/2/3
f 559/2/3 556/2/3 555/2/3
f 559/2/3 558/2/3 557/2/3
f 559/2/3 557/2/3 556/2/3
f 560/2/3 558/2/3 559/2/3
f 561/2/3 559/2/3 555/2/3
f 562/2/3 559/2/3 561/2/3
f 563/2/3 555/2/3 551/2/3
f 563/2/3 561/2/3 555/2/3
f 564/2/3 561/2/3 563/2/3
f 567/2/3 566/2/3 565/2/3
f 568/2/3 566/2/3 567/2/3
f 569/2/3 567/2/3 565/2/3
f 570/2/3 567/2/3 569/2/3
f 573/1/3 572/1/3 571/1/3
f 574/1/3 572/1/3 573/1/3
f 577/1/3 576/1/3 575/1/3
f 578/1/3 576/1/3 577/1/3
f 581/1/3 580/1/3 579/1/3
f 582/1/3 580/1/3 581/1/3
f 585/1/3 584/1/3 583/1/3
f 586/1/3 584/1/3 585/1/3
f 589/2/3 588/2/3 587/2/3
f 590/2/3 588/2/3 589/2/3
f 593/2/3 592/2/3 591/2/3
f 594/2/3 592/2/3 593/2/3
f 595/1/4 596/1/4 597/1/4
f 597/1/4 596/1/4 598/1/4
f 599/1/4 600/1/4 601/1/4
f 601/1/4 600/1/4 602/1/4
f 603/1/4 604/1/4 605/1/4
f 605/1/4 604/1/4 606/1/4
f 607/1/4 608/1/4 609/1/4
f 609/1/4 608/1/4 610/1/4
f 611/2/4 612/2/4 613/2/4
f 613/2/4 612/2/4 614/2/4
f 615/2/4 616/2/4 619/2/4
f 617/2/4 618/2/4 620/2/4
f 620/2/4 618/2/4 621/2/4
f 620/2/4 621/2/4 623/2/4
f 621/2/4 622/2/4 623/2/4
f 619/2/4 620/2/4 623/2/4
f 623/2/4 622/2/4 624/2/4
f 619/2/4 623/2/4 625/2/4
f 625/2/4 623/2/4 626/2/4
f 615/2/4 619/2/4 627/2/4
f 619/2/4 625/2/4 627/2/4
f 627/2/4 625/2/4 628/2/4
f 629/2/4 630/2/4 631/2/4
f 631/2/4 630/2/4 632/2/4
f 632/2/4 630/2/4 633/2/4
f 633/2/4 634/2/4 635/2/4
f 632/2/4 633/2/4 635/2/4
f 635/2/4 634/2/4 636/2/4
f 637/1/4 638/1/4 641/1/4
f 641/1/4 638/1/4 642/1/4
f 639/1/4 640/1/4 643/1/4
f 643/1/4 640/1/4 644/1/4
f 645/1/4 646/1/4 649/1/4
f 649/1/4 646/1/4 650/1/4
f 647/1/4 648/1/4 651/1/4
f 651/1/4 648/1/4 652/1/4
f 653/1/4 654/1/4 657/1/4
f 657/1/4 654/1/4 658/1/4
f 655/1/4 656/1/4 659/1/4
f 659/1/4 656/1/4 660/1/4
f 661/2/4 662/2/4 663/2/4
f 663/2/4 662/2/4 664/2/4
f 665/2/4 666/2/4 667/2/4
f 665/2/4 667/2/4 669/2/4
f 667/2/4 668/2/4 669/2/4
f 669/2/4 668/2/4 670/2/4
f 671/1/4 672/1/4 673/1/4
f 673/1/4 672/1/4 674/1/4
f 675/1/4 676/1/4 679/1/4
f 679/1/4 676/1/4 680/1/4
f 677/2/4 678/2/4 681/2/4
f 677/2/4 681/2/4 686/2/4
f 686/2/4 681/2/4 687/2/4
f 682/1/4 683/1/4 688/1/4
f 688/1/4 683/1/4 689/1/4
f 684/1/4 685/1/4 690/1/4
f 690/1/4 685/1/4 691/1/4
f 692/2/4 693/2/4 694/2/4
f 694/2/4 693/2/4 695/2/4
f 696/1/4 697/1/4 700/1/4
f 700/1/4 697/1/4 701/1/4
f 698/1/4 699/1/4 702/1/4
f 702/1/4 699/1/4 703/1/4
f 704/2/4 705/2/4 706/2/4
f 706/2/4 705/2/4 707/2/4
f 708/1/4 709/1/4 710/1/4
f 710/1/4 709/1/4 711/1/4
f 712/2/4 713/2/4 716/2/4
f 716/2/4 713/2/4 717/2/4
f 714/2/4 715/2/4 719/2/4
f 718/2/4 719/2/4 720/2/4
f 719/2/4 715/2/4 721/2/4
f 720/2/4 719/2/4 721/2/4
f 722/2/4 723/2/4 724/2/4
f 724/2/4 723/2/4 725/2/4
f 722/2/4 724/2/4 728/2/4
f 728/2/4 724/2/4 729/2/4
f 726/2/4 727/2/4 731/2/4
f 722/2/4 728/2/4 732/2/4
f 730/2/4 731/2/4 734/2/4
f 734/2/4 731/2/4 735/2/4
f 735/2/4 731/2/4 736/2/4
f 731/2/4 727/2/4 737/2/4
f 736/2/4 731/2/4 737/2/4
f 732/2/4 733/2/4 738/2/4
f 722/2/4 732/2/4 738/2/4
f 738/2/4 733/2/4 739/2/4
f 740/2/4 741/2/4 742/2/4
f 742/2/4 741/2/4 743/2/4
f 743/2/4 741/2/4 744/2/4
f 744/2/4 741/2/4 745/2/4
f 746/2/4 747/2/4 748/2/4
f 748/2/4 747/2/4 749/2/4
f 750/2/4 751/2/4 752/2/4
f 752/2/4 751/2/4 753/2/4
f 754/2/4 755/2/4 757/2/4
f 756/2/4 757/2/4 758/2/4
f 757/2/4 755/2/4 759/2/4
f 758/2/4 757/2/4 759/2/4
f 760/2/4 761/2/4 762/2/4
f 762/2/4 761/2/4 763/2/4
f 763/2/4 761/2/4 764/2/4
f 764/2/4 761/2/4 765/2/4
f 766/2/4 767/2/4 769/2/4
f 768/2/4 769/2/4 770/2/4
f 769/2/4 767/2/4 771/2/4
f 770/2/4 769/2/4 771/2/4
f 772/2/4 773/2/4 775/2/4
f 775/2/4 773/2/4 776/2/4
f 776/2/4 773/2/4 777/2/4
f 774/2/4 775/2/4 779/2/4
f 775/2/4 776/2/4 779/2/4
f 779/2/4 776/2/4 780/2/4
f 780/2/4 776/2/4 781/2/4
f 778/2/4 779/2/4 782/2/4
f 779/2/4 780/2/4 782/2/4
f 782/2/4 780/2/4 783/2/4
f 783/2/4 780/2/4 784/2/4
f 784/2/4 785/2/4 786/2/4
f 783/2/4 784/2/4 786/2/4
f 786/2/4 785/2/4 787/2/4
f 787/2/4 785/2/4 788/2/4
f 787/2/4 788/2/4 790/2/4
f 788/2/4 789/2/4 790/2/4
f 790/2/4 789/2/4 791/2/4
f 795/2/5 793/2/5 792/2/5
f 796/2/5 793/2/5 795/2/5
f 798/2/5 795/2/5 794/2/5
f 798/2/5 797/2/5 796/2/5
f 798/2/5 796/2/5 795/2/5
f 799/2/5 797/2/5 798/2/5
f 800/2/5 797/2/5 799/2/5
f 801/2/5 797/2/5 800/2/5
f 802/2/5 800/2/5 799/2/5
f 803/2/5 800/2/5 802/2/5
f 808/1/5 805/1/5 804/1/5
f 809/1/5 805/1/5 808/1/5
f 810/1/5 807/1/5 806/1/5
f 811/1/5 807/1/5 810/1/5
f 816/2/5 813/2/5 812/2/5
f 817/2/5 813/2/5 816/2/5
f 818/2/5 815/2/5 814/2/5
f 819/2/5 815/2/5 818/2/5
f 820/2/5 816/2/5 812/2/5
f 821/2/5 813/2/5 817/2/5
f 822/2/5 818/2/5 814/2/5
f 823/2/5 815/2/5 819/2/5
f 824/2/5 820/2/5 812/2/5
f 824/2/5 821/2/5 820/2/5
f 825/2/5 813/2/5 821/2/5
f 825/2/5 821/2/5 824/2/5
f 826/2/5 823/2/5 822/2/5
f 826/2/5 822/2/5 814/2/5
f 827/2/5 823/2/5 826/2/5
f 828/2/5 823/2/5 827/2/5
f 829/2/5 815/2/5 823/2/5
f 829/2/5 823/2/5 828/2/5
f 835/2/5 831/2/5 830/2/5
f 836/2/5 833/2/5 832/2/5
f 837/2/5 833/2/5 836/2/5
f 838/2/5 835/2/5 834/2/5
f 839/2/5 831/2/5 835/2/5
f 839/2/5 835/2/5 838/2/5
f 842/2/5 841/2/5 840/2/5
f 843/2/5 841/2/5 842/2/5
f 846/2/5 845/2/5 844/2/5
f 847/2/5 845/2/5 846/2/5
f 852/2/5 849/2/5 848/2/5
f 853/2/5 849/2/5 852/2/5
f 854/2/5 851/2/5 850/2/5
f 855/2/5 851/2/5 854/2/5
f 860/2/5 857/2/5 856/2/5
f 861/2/5 857/2/5 860/2/5
f 862/2/5 857/2/5 861/2/5
f 863/2/5 857/2/5 862/2/5
f 864/2/5 859/2/5 858/2/5
f 865/2/5 859/2/5 864/2/5
f 866/2/5 859/2/5 865/2/5
f 867/2/5 859/2/5 866/2/5
f 868/2/5 862/2/5 861/2/5
f 869/2/5 862/2/5 868/2/5
f 870/2/5 866/2/5 865/2/5
f 871/2/5 866/2/5 870/2/5
f 874/2/5 873/2/5 872/2/5
f 875/2/5 873/2/5 874/2/5
f 878/2/5 877/2/5 876/2/5
f 879/2/5 877/2/5 878/2/5
f 882/2/5 881/2/5 880/2/5
f 883/2/5 881/2/5 882/2/5
f 886/2/5 885/2/5 884/2/5
f 887/2/5 885/2/5 886/2/5
f 890/2/5 889/2/5 888/2/5
f 891/2/5 889/2/5 890/2/5
f 894/2/5 893/2/5 892/2/5
f 895/2/5 893/2/5 894/2/5
f 899/1/5 897/1/5 896/1/5
f 900/1/5 897/1/5 899/1/5
f 902/1/5 899/1/5 898/1/5
f 902/1/5 900/1/5 899/1/5
f 903/1/5 900/1/5 902/1/5
f 904/1/5 900/1/5 903/1/5
f 905/1/5 902/1/5 901/1/5
f 905/1/5 903/1/5 902/1/5
f 906/1/5 903/1/5 905/1/5
f 907/1/5 903/1/5 906/1/5
f 909/1/5 908/1/5 907/1/5
f 909/1/5 907/1/5 906/1/5
f 911/1/5 909/1/5 906/1/5
f 911/1/5 910/1/5 909/1/5
f 912/1/5 910/1/5 911/1/5
f 917/1/5 914/1/5 913/1/5
f 918/1/5 914/1/5 917/1/5
f 919/1/5 916/1/5 915/1/5
f 920/1/5 916/1/5 919/1/5
f 925/1/5 922/1/5 921/1/5
f 926/1/5 922/1/5 925/1/5
f 927/1/5 924/1/5 923/1/5
f 928/1/5 924/1/5 927/1/5
f 933/1/5 930/1/5 929/1/5
f 934/1/5 930/1/5 933/1/5
f 935/1/5 932/1/5 931/1/5
f 936/1/5 932/1/5 935/1/5
f 941/1/5 938/1/5 937/1/5
f 942/1/5 938/1/5 941/1/5
f 943/1/5 940/1/5 939/1/5
f 944/1/5 940/1/5 943/1/5
f 946/1/5 945/1/5 944/1/5
f 947/1/5 945/1/5 946/1/5
f 950/1/5 949/1/5 948/1/5
f 951/1/5 949/1/5 950/1/5
f 956/1/5 953/1/5 952/1/5
f 957/1/5 953/1/5 956/1/5
f 958/1/5 955/1/5 954/1/5
f 959/1/5 955/1/5 958/1/5
f 964/5/5 961/5/5 960/5/5
f 965/5/5 961/5/5 964/5/5
f 966/5/5 963/5/5 962/5/5
f 967/5/5 963/5/5 966/5/5
f 976/4/5 969/4/5 968/4/5
f 977/4/5 969/4/5 976/4/5
f 978/4/5 971/4/5 970/4/5
f 979/4/5 971/4/5 978/4/5
f 980/4/5 973/4/5 972/4/5
f 981/4/5 973/4/5 980/4/5
f 982/4/5 975/4/5 974/4/5
f 983/4/5 975/4/5 982/4/5
f 984/2/6 985/2/6 986/2/6
f 986/2/6 985/2/6 987/2/6
f 988/2/6 989/2/6 990/2/6
f 990/2/6 989/2/6 991/2/6
f 992/2/6 993/2/6 994/2/6
f 994/2/6 993/2/6 995/2/6
f 996/2/6 997/2/6 998/2/6
f 998/2/6 997/2/6 999/2/6
f 1000/2/6 1001/2/6 1002/2/6
f 1002/2/6 1001/2/6 1003/2/6
f 1004/2/6 1005/2/6 1006/2/6
f 1006/2/6 1005/2/6 1007/2/6
f 1008/2/6 1009/2/6 1010/2/6
f 1010/2/6 1009/2/6 1011/2/6
f 1012/2/6 1013/2/6 1014/2/6
f 1014/2/6 1013/2/6 1015/2/6
f 1018/2/6 1019/2/6 1020/2/6
f 1020/2/6 1019/2/6 1021/2/6
f 1016/2/6 1017/2/6 1022/2/6
f 1022/2/6 1017/2/6 1023/2/6
f 1024/2/6 1025/2/6 1026/2/6
f 1026/2/6 1025/2/6 1027/2/6
f 1028/2/6 1029/2/6 1030/2/6
f 1030/2/6 1029/2/6 1031/2/6
f 1032/2/6 1033/2/6 1034/2/6
f 1034/2/6 1033/2/6 1035/2/6
f 1036/2/6 1037/2/6 1038/2/6
f 1038/2/6 1037/2/6 1039/2/6
f 1042/2/6 1043/2/6 1044/2/6
f 1044/2/6 1043/2/6 1045/2/6
f 1040/2/6 1041/2/6 1046/2/6
f 1046/2/6 1041/2/6 1047/2/6
f 1048/2/6 1049/2/6 1050/2/6
f 1050/2/6 1049/2/6 1051/2/6
f 1052/2/6 1053/2/6 1056/2/6
f 1056/2/6 1053/2/6 1057/2/6
f 1054/2/6 1055/2/6 1058/2/6
f 1058/2/6 1055/2/6 1059/2/6
f 1060/2/6 1061/2/6 1063/2/6
f 1063/2/6 1061/2/6 1064/2/6
f 1064/2/6 1061/2/6 1065/2/6
f 1062/2/6 1063/2/6 1068/2/6
f 1063/2/6 1064/2/6 1068/2/6
f 1068/2/6 1064/2/6 1069/2/6
f 1066/2/6 1067/2/6 1070/2/6
f 1070/2/6 1067/2/6 1071/2/6
f 1072/2/6 1073/2/6 1075/2/6
f 1075/2/6 1073/2/6 1076/2/6
f 1074/2/6 1075/2/6 1077/2/6
f 1074/2/6 1077/2/6 1078/2/6
f 1078/2/6 1077/2/6 1079/2/6
f 1074/2/6 1078/2/6 1080/2/6
f 1080/2/6 1081/2/6 1082/2/6
f 1080/2/6 1082/2/6 1084/2/6
f 1082/2/6 1083/2/6 1084/2/6
f 1074/2/6 1080/2/6 1084/2/6
f 1084/2/6 1083/2/6 1085/2/6
f 1085/2/6 1083/2/6 1086/2/6
f 1085/2/6 1086/2/6 1088/2/6
f 1086/2/6 1087/2/6 1088/2/6
f 1088/2/6 1087/2/6 1089/2/6
f 1085/2/6 1088/2/6 1090/2/6
f 1090/2/6 1088/2/6 1091/2/6
f 1089/2/6 1087/2/6 1092/2/6
f 1092/2/6 1087/2/6 1093/2/6
f 1094/2/6 1095/2/6 1096/2/6
f 1096/2/6 1095/2/6 1097/2/6
f 1097/2/6 1095/2/6 1098/2/6
f 1098/2/6 1095/2/6 1099/2/6
f 1099/2/6 1095/2/6 1101/2/6
f 1100/2/6 1101/2/6 1102/2/6
f 1101/2/6 1095/2/6 1103/2/6
f 1102/2/6 1101/2/6 1103/2/6
f 1103/2/6 1095/2/6 1104/2/6
f 1104/2/6 1095/2/6 1105/2/6
f 1106/1/6 1107/1/6 1110/1/6
f 1110/1/6 1107/1/6 1111/1/6
f 1108/1/6 1109/1/6 1112/1/6
f 1112/1/6 1109/1/6 1113/1/6
f 1114/4/6 1115/4/6 1118/4/6
f 1118/4/6 1115/4/6 1119/4/6
f 1116/4/6 1117/4/6 1120/4/6
f 1120/4/6 1117/4/6 1121/4/6
f 1122/1/6 1123/1/6 1124/1/6
f 1124/1/6 1123/1/6 1125/1/6
f 1126/1/6 1127/1/6 1128/1/6
f 1128/1/6 1127/1/6 1129/1/6
f 1130/1/6 1131/1/6 1134/1/6
f 1134/1/6 1131/1/6 1135/1/6
f 1132/1/6 1133/1/6 1136/1/6
f 1136/1/6 1133/1/6 1137/1/6
f 1138/1/6 1139/1/6 1142/1/6
f 1142/1/6 1139/1/6 1143/1/6
f 1140/1/6 1141/1/6 1144/1/6
f 1144/1/6 1141/1/6 1145/1/6
f 1146/1/6 1147/1/6 1150/1/6
f 1150/1/6 1147/1/6 1151/1/6
f 1148/1/6 1149/1/6 1152/1/6
f 1152/1/6 1149/1/6 1153/1/6
f 1154/1/6 1155/1/6 1156/1/6
f 1156/1/6 1155/1/6 1157/1/6
f 1158/1/6 1159/1/6 1162/1/6
f 1162/1/6 1159/1/6 1163/1/6
f 1160/1/6 1161/1/6 1164/1/6
f 1164/1/6 1161/1/6 1165/1/6
f 1166/1/6 1167/1/6 1168/1/6
f 1168/1/6 1167/1/6 1169/1/6
f 1170/1/6 1171/1/6 1172/1/6
f 1172/1/6 1171/1/6 1173/1/6
f 1170/1/6 1172/1/6 1174/1/6
f 1173/1/6 1171/1/6 1175/1/6
f 1170/1/6 1174/1/6 1176/1/6
f 1174/1/6 1175/1/6 1176/1/6
f 1175/1/6 1171/1/6 1177/1/6
f 1176/1/6 1175/1/6 1177/1/6
f 1178/1/6 1179/1/6 1180/1/6
f 1180/1/6 1179/1/6 1181/1/6
f 1178/1/6 1180/1/6 1182/1/6
f 1181/1/6 1179/1/6 1183/1/6
f 1178/1/6 1182/1/6 1184/1/6
f 1182/1/6 1183/1/6 1184/1/6
f 1183/1/6 1179/1/6 1185/1/6
f 1184/1/6 1183/1/6 1185/1/6
f 1186/1/6 1187/1/6 1188/1/6
f 1188/1/6 1187/1/6 1189/1/6
