# MagicaVoxel @ Ephtracy

# group
g redMonk

# material
mtllib redMonk.mtl
usemtl palette

# normals
vn -1 0 0
vn 1 0 0
vn 0 0 1
vn 0 0 -1
vn 0 -1 0
vn 0 1 0

# texcoords
vt 0.0332031 0.5
vt 0.845703 0.5
vt 0.912109 0.5
vt 0.994141 0.5

# verts
v -11 12 2
v -11 12 -3
v -11 15 -2
v -11 15 -3
v -11 22 2
v -11 22 -2
v -10 10 1
v -10 10 -1
v -10 12 1
v -10 12 -1
v -9 12 -3
v -9 12 -4
v -9 13 3
v -9 13 2
v -9 14 -3
v -9 14 -4
v -9 15 -2
v -9 15 -3
v -9 22 2
v -9 22 -2
v -9 23 3
v -9 23 -3
v -8 13 4
v -8 13 3
v -8 14 -3
v -8 14 -4
v -8 23 3
v -8 23 -3
v -8 24 4
v -8 24 -4
v -7 1 6
v -7 1 -6
v -7 12 2
v -7 12 -4
v -7 13 4
v -7 13 2
v -7 24 4
v -7 24 -4
v -7 26 6
v -7 26 -6
v -7 30 1
v -7 30 -1
v -7 32 1
v -7 32 -1
v -6 1 7
v -6 1 6
v -6 1 -6
v -6 1 -7
v -6 16 7
v -6 16 6
v -6 24 -7
v -6 24 -8
v -6 26 -6
v -6 26 -8
v -6 27 3
v -6 27 -3
v -6 28 4
v -6 28 3
v -6 28 -3
v -6 28 -4
v -6 30 1
v -6 30 -1
v -6 32 1
v -6 32 -1
v -6 34 4
v -6 34 3
v -6 34 -3
v -6 34 -4
v -6 35 3
v -6 35 -3
v -5 19 -7
v -5 19 -9
v -5 24 -7
v -5 24 -8
v -5 25 -8
v -5 25 -9
v -5 27 5
v -5 27 3
v -5 27 -3
v -5 27 -6
v -5 28 4
v -5 28 3
v -5 28 -3
v -5 28 -4
v -5 29 6
v -5 29 5
v -5 34 6
v -5 34 5
v -5 34 4
v -5 34 3
v -5 34 -3
v -5 34 -4
v -5 35 3
v -5 35 -3
v -5 35 -5
v -5 35 -6
v -5 36 5
v -5 36 -5
v -4 19 -9
v -4 19 -10
v -4 24 -9
v -4 24 -10
v -4 28 6
v -4 28 5
v -4 29 6
v -4 29 5
v -4 32 7
v -4 32 6
v -4 33 7
v -4 33 6
v -4 34 6
v -4 34 5
v -4 35 6
v -4 35 5
v -4 36 4
v -4 36 -4
v -4 37 4
v -4 37 -4
v -3 16 7
v -3 16 6
v -3 18 -9
v -3 18 -10
v -3 19 -9
v -3 19 -10
v -3 20 7
v -3 20 6
v -3 26 3
v -3 26 -3
v -3 27 6
v -3 27 5
v -3 27 3
v -3 27 -3
v -3 28 6
v -3 28 5
v -3 31 7
v -3 31 6
v -3 32 7
v -3 32 6
v -3 37 3
v -3 37 -3
v -3 38 3
v -3 38 -3
v -2 17 -7
v -2 17 -10
v -2 18 -9
v -2 18 -10
v -2 19 -7
v -2 19 -9
v 0 20 7
v 0 20 6
v 0 23 7
v 0 23 6
v 1 32 7
v 1 32 6
v 1 33 7
v 1 33 6
v 2 31 7
v 2 31 6
v 2 32 7
v 2 32 6
v 3 21 -7
v 3 21 -10
v 3 22 -8
v 3 22 -10
v 3 23 7
v 3 23 6
v 3 24 -7
v 3 24 -8
v 3 26 7
v 3 26 6
v 3 26 3
v 3 26 -3
v 3 26 -4
v 3 27 6
v 3 27 3
v 3 27 -3
v 3 27 -4
v 4 22 -8
v 4 22 -10
v 4 24 -7
v 4 24 -8
v 4 24 -9
v 4 24 -10
v 4 25 -8
v 4 25 -9
v 4 26 -7
v 4 26 -8
v 6 26 -4
v 6 26 -6
v 6 27 -4
v 6 27 -6
v 8 10 2
v 8 10 -0
v 8 12 2
v 8 12 -0
v -8 10 1
v -8 10 -1
v -8 12 1
v -8 12 -1
v -4 25 -7
v -4 25 -8
v -4 26 -7
v -4 26 -8
v -3 23 -8
v -3 23 -10
v -3 24 -9
v -3 24 -10
v -3 25 -8
v -3 25 -9
v -2 21 -7
v -2 21 -10
v -2 23 -8
v -2 23 -10
v -2 25 -7
v -2 25 -8
v -2 31 7
v -2 31 6
v -2 32 7
v -2 32 6
v -1 32 7
v -1 32 6
v -1 33 7
v -1 33 6
v 3 17 -7
v 3 17 -10
v 3 18 -9
v 3 18 -10
v 3 19 -7
v 3 19 -9
v 3 27 6
v 3 27 5
v 3 28 6
v 3 28 5
v 3 31 7
v 3 31 6
v 3 32 7
v 3 32 6
v 3 37 3
v 3 37 -3
v 3 38 3
v 3 38 -3
v 4 18 -9
v 4 18 -10
v 4 19 -9
v 4 19 -10
v 4 28 6
v 4 28 5
v 4 29 6
v 4 29 5
v 4 32 7
v 4 32 6
v 4 33 7
v 4 33 6
v 4 34 6
v 4 34 5
v 4 35 6
v 4 35 5
v 4 36 4
v 4 36 -4
v 4 37 4
v 4 37 -4
v 5 19 -9
v 5 19 -10
v 5 24 -9
v 5 24 -10
v 5 27 5
v 5 27 3
v 5 27 -3
v 5 27 -4
v 5 27 -6
v 5 28 4
v 5 28 3
v 5 28 -3
v 5 28 -4
v 5 29 6
v 5 29 5
v 5 29 4
v 5 29 -4
v 5 29 -5
v 5 33 5
v 5 33 4
v 5 33 -4
v 5 33 -5
v 5 34 6
v 5 34 5
v 5 34 4
v 5 34 3
v 5 34 -3
v 5 34 -4
v 5 35 3
v 5 35 -3
v 5 35 -5
v 5 35 -6
v 5 36 5
v 5 36 -5
v 6 1 7
v 6 1 6
v 6 1 -6
v 6 1 -7
v 6 19 -7
v 6 19 -9
v 6 22 -6
v 6 22 -8
v 6 25 -8
v 6 25 -9
v 6 26 7
v 6 26 6
v 6 27 3
v 6 27 -3
v 6 28 4
v 6 28 3
v 6 28 -3
v 6 28 -4
v 6 29 5
v 6 29 4
v 6 29 -4
v 6 29 -5
v 6 30 1
v 6 30 -1
v 6 32 1
v 6 32 -1
v 6 33 5
v 6 33 4
v 6 33 -4
v 6 33 -5
v 6 34 4
v 6 34 3
v 6 34 -3
v 6 34 -4
v 6 35 3
v 6 35 -3
v 7 1 6
v 7 1 -6
v 7 12 3
v 7 12 -2
v 7 13 4
v 7 13 3
v 7 13 -2
v 7 13 -3
v 7 21 4
v 7 21 3
v 7 21 -2
v 7 21 -3
v 7 22 5
v 7 22 3
v 7 22 -2
v 7 22 -4
v 7 22 -6
v 7 22 -8
v 7 24 6
v 7 24 5
v 7 24 -4
v 7 24 -6
v 7 26 -6
v 7 26 -8
v 7 30 1
v 7 30 -1
v 7 32 1
v 7 32 -1
v 8 13 4
v 8 13 3
v 8 13 -2
v 8 13 -3
v 8 21 4
v 8 21 3
v 8 21 -2
v 8 21 -3
v 8 22 5
v 8 22 3
v 8 22 -2
v 8 22 -4
v 8 24 6
v 8 24 5
v 8 24 3
v 8 24 -2
v 8 24 -4
v 8 24 -6
v 8 27 6
v 8 27 -6
v 9 22 3
v 9 22 -2
v 9 24 3
v 9 24 -2
v 10 10 2
v 10 10 -0
v 10 12 2
v 10 12 -0
v 10 20 3
v 10 20 -2
v 10 22 3
v 10 22 -2
v 11 12 3
v 11 12 -2
v 11 20 3
v 11 20 -2
v -6 1 7
v -6 16 7
v -4 32 7
v -4 33 7
v -3 16 7
v -3 20 7
v -3 31 7
v -3 32 7
v -2 31 7
v -2 32 7
v -1 32 7
v -1 33 7
v 0 20 7
v 0 23 7
v 1 32 7
v 1 33 7
v 2 31 7
v 2 32 7
v 3 23 7
v 3 26 7
v 3 31 7
v 3 32 7
v 4 32 7
v 4 33 7
v 6 1 7
v 6 26 7
v -7 1 6
v -7 26 6
v -6 1 6
v -6 16 6
v -5 29 6
v -5 34 6
v -4 28 6
v -4 29 6
v -4 32 6
v -4 33 6
v -4 34 6
v -4 35 6
v -3 16 6
v -3 20 6
v -3 27 6
v -3 28 6
v -3 31 6
v -3 32 6
v -2 31 6
v -2 32 6
v -1 32 6
v -1 33 6
v 0 20 6
v 0 23 6
v 1 32 6
v 1 33 6
v 2 31 6
v 2 32 6
v 3 23 6
v 3 26 6
v 3 27 6
v 3 28 6
v 3 31 6
v 3 32 6
v 4 28 6
v 4 29 6
v 4 32 6
v 4 33 6
v 4 34 6
v 4 35 6
v 5 29 6
v 5 34 6
v 6 1 6
v 6 26 6
v 7 1 6
v 7 24 6
v 8 24 6
v 8 27 6
v -5 27 5
v -5 29 5
v -5 34 5
v -5 36 5
v -4 28 5
v -4 29 5
v -4 34 5
v -4 35 5
v -3 27 5
v -3 28 5
v 3 27 5
v 3 28 5
v 4 28 5
v 4 29 5
v 4 34 5
v 4 35 5
v 5 27 5
v 5 29 5
v 5 33 5
v 5 34 5
v 5 36 5
v 6 29 5
v 6 33 5
v 7 22 5
v 7 24 5
v 8 22 5
v 8 24 5
v -8 13 4
v -8 24 4
v -7 13 4
v -7 24 4
v -6 28 4
v -6 34 4
v -5 28 4
v -5 34 4
v -4 36 4
v -4 37 4
v 4 36 4
v 4 37 4
v 5 28 4
v 5 29 4
v 5 33 4
v 5 34 4
v 6 28 4
v 6 29 4
v 6 33 4
v 6 34 4
v 7 13 4
v 7 21 4
v 8 13 4
v 8 21 4
v -9 13 3
v -9 23 3
v -8 13 3
v -8 23 3
v -6 27 3
v -6 28 3
v -6 34 3
v -6 35 3
v -5 27 3
v -5 28 3
v -5 34 3
v -5 35 3
v -3 26 3
v -3 27 3
v -3 37 3
v -3 38 3
v 3 26 3
v 3 27 3
v 3 37 3
v 3 38 3
v 5 27 3
v 5 28 3
v 5 34 3
v 5 35 3
v 6 27 3
v 6 28 3
v 6 34 3
v 6 35 3
v 7 12 3
v 7 13 3
v 7 21 3
v 7 22 3
v 8 13 3
v 8 21 3
v 8 22 3
v 8 24 3
v 9 22 3
v 9 24 3
v 10 20 3
v 10 22 3
v 11 12 3
v 11 20 3
v -11 12 2
v -11 22 2
v -9 13 2
v -9 22 2
v -7 12 2
v -7 13 2
v 8 10 2
v 8 12 2
v 10 10 2
v 10 12 2
v -10 10 1
v -10 12 1
v -8 10 1
v -8 12 1
v -7 30 1
v -7 32 1
v -6 30 1
v -6 32 1
v 6 30 1
v 6 32 1
v 7 30 1
v 7 32 1
v -3 18 -9
v -3 19 -9
v -2 18 -9
v -2 19 -9
v 3 18 -9
v 3 19 -9
v 4 18 -9
v 4 19 -9
v 8 10 -0
v 8 12 -0
v 10 10 -0
v 10 12 -0
v -10 10 -1
v -10 12 -1
v -8 10 -1
v -8 12 -1
v -7 30 -1
v -7 32 -1
v -6 30 -1
v -6 32 -1
v 6 30 -1
v 6 32 -1
v 7 30 -1
v 7 32 -1
v -11 15 -2
v -11 22 -2
v -9 15 -2
v -9 22 -2
v 7 12 -2
v 7 13 -2
v 7 21 -2
v 7 22 -2
v 8 13 -2
v 8 21 -2
v 8 22 -2
v 8 24 -2
v 9 22 -2
v 9 24 -2
v 10 20 -2
v 10 22 -2
v 11 12 -2
v 11 20 -2
v -11 12 -3
v -11 15 -3
v -9 12 -3
v -9 14 -3
v -9 15 -3
v -9 23 -3
v -8 14 -3
v -8 23 -3
v -6 27 -3
v -6 28 -3
v -6 34 -3
v -6 35 -3
v -5 27 -3
v -5 28 -3
v -5 34 -3
v -5 35 -3
v -3 26 -3
v -3 27 -3
v -3 37 -3
v -3 38 -3
v 3 26 -3
v 3 27 -3
v 3 37 -3
v 3 38 -3
v 5 27 -3
v 5 28 -3
v 5 34 -3
v 5 35 -3
v 6 27 -3
v 6 28 -3
v 6 34 -3
v 6 35 -3
v 7 13 -3
v 7 21 -3
v 8 13 -3
v 8 21 -3
v -9 12 -4
v -9 14 -4
v -8 14 -4
v -8 24 -4
v -7 12 -4
v -7 24 -4
v -6 28 -4
v -6 34 -4
v -5 28 -4
v -5 34 -4
v -4 36 -4
v -4 37 -4
v 3 26 -4
v 3 27 -4
v 4 36 -4
v 4 37 -4
v 5 27 -4
v 5 28 -4
v 5 29 -4
v 5 33 -4
v 5 34 -4
v 6 26 -4
v 6 27 -4
v 6 28 -4
v 6 29 -4
v 6 33 -4
v 6 34 -4
v 7 22 -4
v 7 24 -4
v 8 22 -4
v 8 24 -4
v -5 35 -5
v -5 36 -5
v 5 29 -5
v 5 33 -5
v 5 35 -5
v 5 36 -5
v 6 29 -5
v 6 33 -5
v -7 1 -6
v -7 26 -6
v -6 1 -6
v -6 26 -6
v -5 27 -6
v -5 35 -6
v 5 27 -6
v 5 35 -6
v 6 1 -6
v 6 22 -6
v 6 26 -6
v 6 27 -6
v 7 1 -6
v 7 22 -6
v 7 24 -6
v 7 26 -6
v 8 24 -6
v 8 27 -6
v -6 1 -7
v -6 24 -7
v -5 19 -7
v -5 24 -7
v -4 25 -7
v -4 26 -7
v -2 17 -7
v -2 19 -7
v -2 21 -7
v -2 25 -7
v 3 17 -7
v 3 19 -7
v 3 21 -7
v 3 24 -7
v 4 24 -7
v 4 26 -7
v 6 1 -7
v 6 19 -7
v -6 24 -8
v -6 26 -8
v -5 24 -8
v -5 25 -8
v -4 25 -8
v -4 26 -8
v -3 23 -8
v -3 25 -8
v -2 23 -8
v -2 25 -8
v 3 22 -8
v 3 24 -8
v 4 22 -8
v 4 24 -8
v 4 25 -8
v 4 26 -8
v 6 22 -8
v 6 25 -8
v 7 22 -8
v 7 26 -8
v -5 19 -9
v -5 25 -9
v -4 19 -9
v -4 24 -9
v -3 24 -9
v -3 25 -9
v 4 24 -9
v 4 25 -9
v 5 19 -9
v 5 24 -9
v 6 19 -9
v 6 25 -9
v -4 19 -10
v -4 24 -10
v -3 18 -10
v -3 19 -10
v -3 23 -10
v -3 24 -10
v -2 17 -10
v -2 18 -10
v -2 21 -10
v -2 23 -10
v 3 17 -10
v 3 18 -10
v 3 21 -10
v 3 22 -10
v 4 18 -10
v 4 19 -10
v 4 22 -10
v 4 24 -10
v 5 19 -10
v 5 24 -10
v -6 1 7
v 6 1 7
v -7 1 6
v -6 1 6
v 6 1 6
v 7 1 6
v -7 1 -6
v -6 1 -6
v 6 1 -6
v 7 1 -6
v -6 1 -7
v 6 1 -7
v 8 10 2
v 10 10 2
v -10 10 1
v -8 10 1
v 8 10 -0
v 10 10 -0
v -10 10 -1
v -8 10 -1
v 7 12 3
v 11 12 3
v -11 12 2
v -7 12 2
v 8 12 2
v 10 12 2
v -10 12 1
v -8 12 1
v 8 12 -0
v 10 12 -0
v -10 12 -1
v -8 12 -1
v 7 12 -2
v 11 12 -2
v -11 12 -3
v -9 12 -3
v -9 12 -4
v -7 12 -4
v -8 13 4
v -7 13 4
v 7 13 4
v 8 13 4
v -9 13 3
v -8 13 3
v 7 13 3
v 8 13 3
v -9 13 2
v -7 13 2
v 7 13 -2
v 8 13 -2
v 7 13 -3
v 8 13 -3
v -2 17 -7
v 3 17 -7
v -2 17 -10
v 3 17 -10
v -3 18 -9
v -2 18 -9
v 3 18 -9
v 4 18 -9
v -3 18 -10
v -2 18 -10
v 3 18 -10
v 4 18 -10
v -5 19 -7
v -2 19 -7
v 3 19 -7
v 6 19 -7
v -5 19 -9
v -4 19 -9
v -3 19 -9
v -2 19 -9
v 3 19 -9
v 4 19 -9
v 5 19 -9
v 6 19 -9
v -4 19 -10
v -3 19 -10
v 4 19 -10
v 5 19 -10
v 7 22 5
v 8 22 5
v 7 22 3
v 8 22 3
v 7 22 -2
v 8 22 -2
v 7 22 -4
v 8 22 -4
v 6 22 -6
v 7 22 -6
v 6 22 -8
v 7 22 -8
v 7 24 6
v 8 24 6
v 7 24 5
v 8 24 5
v 7 24 -4
v 8 24 -4
v 7 24 -6
v 8 24 -6
v -6 24 -7
v -5 24 -7
v -6 24 -8
v -5 24 -8
v -3 27 6
v 3 27 6
v -5 27 5
v -3 27 5
v -6 27 3
v -5 27 3
v -3 27 3
v 3 27 3
v -6 27 -3
v -5 27 -3
v -3 27 -3
v 3 27 -3
v 3 27 -4
v 5 27 -4
v -5 27 -6
v 5 27 -6
v -4 28 6
v -3 28 6
v 3 28 6
v 4 28 6
v -4 28 5
v -3 28 5
v 3 28 5
v 4 28 5
v -6 28 4
v -5 28 4
v 5 28 4
v 6 28 4
v -6 28 3
v -5 28 3
v 5 28 3
v 6 28 3
v -6 28 -3
v -5 28 -3
v 5 28 -3
v 6 28 -3
v -6 28 -4
v -5 28 -4
v 5 28 -4
v 6 28 -4
v -5 29 6
v -4 29 6
v 4 29 6
v 5 29 6
v -5 29 5
v -4 29 5
v 4 29 5
v 5 29 5
v 6 29 5
v 5 29 4
v 6 29 4
v 5 29 -4
v 6 29 -4
v 5 29 -5
v 6 29 -5
v -7 30 1
v -6 30 1
v 6 30 1
v 7 30 1
v -7 30 -1
v -6 30 -1
v 6 30 -1
v 7 30 -1
v -3 31 7
v -2 31 7
v 2 31 7
v 3 31 7
v -3 31 6
v -2 31 6
v 2 31 6
v 3 31 6
v -4 32 7
v -3 32 7
v -2 32 7
v -1 32 7
v 1 32 7
v 2 32 7
v 3 32 7
v 4 32 7
v -4 32 6
v -3 32 6
v -2 32 6
v -1 32 6
v 1 32 6
v 2 32 6
v 3 32 6
v 4 32 6
v -9 14 -3
v -8 14 -3
v -9 14 -4
v -8 14 -4
v -11 15 -2
v -9 15 -2
v -11 15 -3
v -9 15 -3
v -6 16 7
v -3 16 7
v -6 16 6
v -3 16 6
v -3 20 7
v 0 20 7
v -3 20 6
v 0 20 6
v 10 20 3
v 11 20 3
v 10 20 -2
v 11 20 -2
v 7 21 4
v 8 21 4
v 7 21 3
v 8 21 3
v 7 21 -2
v 8 21 -2
v 7 21 -3
v 8 21 -3
v -2 21 -7
v 3 21 -7
v -2 21 -10
v 3 21 -10
v 9 22 3
v 10 22 3
v -11 22 2
v -9 22 2
v -11 22 -2
v -9 22 -2
v 9 22 -2
v 10 22 -2
v 3 22 -8
v 4 22 -8
v 3 22 -10
v 4 22 -10
v 0 23 7
v 3 23 7
v 0 23 6
v 3 23 6
v -9 23 3
v -8 23 3
v -9 23 -3
v -8 23 -3
v -3 23 -8
v -2 23 -8
v -3 23 -10
v -2 23 -10
v -8 24 4
v -7 24 4
v 8 24 3
v 9 24 3
v 8 24 -2
v 9 24 -2
v -8 24 -4
v -7 24 -4
v 3 24 -7
v 4 24 -7
v 3 24 -8
v 4 24 -8
v -4 24 -9
v -3 24 -9
v 4 24 -9
v 5 24 -9
v -4 24 -10
v -3 24 -10
v 4 24 -10
v 5 24 -10
v -4 25 -7
v -2 25 -7
v -5 25 -8
v -4 25 -8
v -3 25 -8
v -2 25 -8
v 4 25 -8
v 6 25 -8
v -5 25 -9
v -3 25 -9
v 4 25 -9
v 6 25 -9
v 3 26 7
v 6 26 7
v -7 26 6
v 3 26 6
v 6 26 6
v -3 26 3
v 3 26 3
v -3 26 -3
v 3 26 -3
v 3 26 -4
v 6 26 -4
v -7 26 -6
v -6 26 -6
v 6 26 -6
v 7 26 -6
v -4 26 -7
v 4 26 -7
v -6 26 -8
v -4 26 -8
v 4 26 -8
v 7 26 -8
v 3 27 6
v 8 27 6
v 3 27 5
v 5 27 5
v 5 27 3
v 6 27 3
v 5 27 -3
v 6 27 -3
v 5 27 -4
v 6 27 -4
v 6 27 -6
v 8 27 -6
v -7 32 1
v -6 32 1
v 6 32 1
v 7 32 1
v -7 32 -1
v -6 32 -1
v 6 32 -1
v 7 32 -1
v -4 33 7
v -1 33 7
v 1 33 7
v 4 33 7
v -4 33 6
v -1 33 6
v 1 33 6
v 4 33 6
v 5 33 5
v 6 33 5
v 5 33 4
v 6 33 4
v 5 33 -4
v 6 33 -4
v 5 33 -5
v 6 33 -5
v -5 34 6
v -4 34 6
v 4 34 6
v 5 34 6
v -5 34 5
v -4 34 5
v 4 34 5
v 5 34 5
v -6 34 4
v -5 34 4
v 5 34 4
v 6 34 4
v -6 34 3
v -5 34 3
v 5 34 3
v 6 34 3
v -6 34 -3
v -5 34 -3
v 5 34 -3
v 6 34 -3
v -6 34 -4
v -5 34 -4
v 5 34 -4
v 6 34 -4
v -4 35 6
v 4 35 6
v -4 35 5
v 4 35 5
v -6 35 3
v -5 35 3
v 5 35 3
v 6 35 3
v -6 35 -3
v -5 35 -3
v 5 35 -3
v 6 35 -3
v -5 35 -5
v 5 35 -5
v -5 35 -6
v 5 35 -6
v -5 36 5
v 5 36 5
v -4 36 4
v 4 36 4
v -4 36 -4
v 4 36 -4
v -5 36 -5
v 5 36 -5
v -4 37 4
v 4 37 4
v -3 37 3
v 3 37 3
v -3 37 -3
v 3 37 -3
v -4 37 -4
v 4 37 -4
v -3 38 3
v 3 38 3
v -3 38 -3
v 3 38 -3

# faces
f 3/2/1 2/2/1 1/2/1
f 4/2/1 2/2/1 3/2/1
f 5/2/1 3/2/1 1/2/1
f 6/2/1 3/2/1 5/2/1
f 9/1/1 8/1/1 7/1/1
f 10/1/1 8/1/1 9/1/1
f 15/2/1 12/2/1 11/2/1
f 16/2/1 12/2/1 15/2/1
f 19/2/1 14/2/1 13/2/1
f 20/2/1 18/2/1 17/2/1
f 21/2/1 19/2/1 13/2/1
f 21/2/1 20/2/1 19/2/1
f 22/2/1 18/2/1 20/2/1
f 22/2/1 20/2/1 21/2/1
f 27/2/1 24/2/1 23/2/1
f 28/2/1 26/2/1 25/2/1
f 29/2/1 27/2/1 23/2/1
f 29/2/1 28/2/1 27/2/1
f 30/2/1 26/2/1 28/2/1
f 30/2/1 28/2/1 29/2/1
f 33/2/1 32/2/1 31/2/1
f 34/2/1 32/2/1 33/2/1
f 35/2/1 33/2/1 31/2/1
f 36/2/1 33/2/1 35/2/1
f 37/2/1 35/2/1 31/2/1
f 38/2/1 32/2/1 34/2/1
f 39/2/1 37/2/1 31/2/1
f 39/2/1 38/2/1 37/2/1
f 40/2/1 32/2/1 38/2/1
f 40/2/1 38/2/1 39/2/1
f 43/1/1 42/1/1 41/1/1
f 44/1/1 42/1/1 43/1/1
f 49/2/1 46/2/1 45/2/1
f 50/2/1 46/2/1 49/2/1
f 51/2/1 48/2/1 47/2/1
f 53/2/1 51/2/1 47/2/1
f 53/2/1 52/2/1 51/2/1
f 54/2/1 52/2/1 53/2/1
f 58/1/1 56/1/1 55/1/1
f 59/1/1 56/1/1 58/1/1
f 61/1/1 58/1/1 57/1/1
f 61/1/1 60/1/1 59/1/1
f 61/1/1 59/1/1 58/1/1
f 62/1/1 60/1/1 61/1/1
f 63/1/1 61/1/1 57/1/1
f 64/1/1 60/1/1 62/1/1
f 65/1/1 63/1/1 57/1/1
f 65/1/1 64/1/1 63/1/1
f 66/1/1 64/1/1 65/1/1
f 67/1/1 60/1/1 64/1/1
f 67/1/1 64/1/1 66/1/1
f 68/1/1 60/1/1 67/1/1
f 69/1/1 67/1/1 66/1/1
f 70/1/1 67/1/1 69/1/1
f 73/2/1 72/2/1 71/2/1
f 74/2/1 72/2/1 73/2/1
f 75/2/1 72/2/1 74/2/1
f 76/2/1 72/2/1 75/2/1
f 81/1/1 78/1/1 77/1/1
f 82/1/1 78/1/1 81/1/1
f 83/1/1 80/1/1 79/1/1
f 84/1/1 80/1/1 83/1/1
f 86/1/1 81/1/1 77/1/1
f 87/1/1 86/1/1 85/1/1
f 88/1/1 81/1/1 86/1/1
f 88/1/1 86/1/1 87/1/1
f 89/1/1 81/1/1 88/1/1
f 92/1/1 80/1/1 84/1/1
f 93/1/1 90/1/1 89/1/1
f 93/1/1 89/1/1 88/1/1
f 94/1/1 92/1/1 91/1/1
f 95/1/1 80/1/1 92/1/1
f 95/1/1 92/1/1 94/1/1
f 96/1/1 80/1/1 95/1/1
f 97/1/1 93/1/1 88/1/1
f 97/1/1 94/1/1 93/1/1
f 97/1/1 95/1/1 94/1/1
f 98/1/1 95/1/1 97/1/1
f 101/2/1 100/2/1 99/2/1
f 102/2/1 100/2/1 101/2/1
f 105/1/1 104/1/1 103/1/1
f 106/1/1 104/1/1 105/1/1
f 109/3/1 108/3/1 107/3/1
f 110/3/1 108/3/1 109/3/1
f 113/1/1 112/1/1 111/1/1
f 114/1/1 112/1/1 113/1/1
f 117/1/1 116/1/1 115/1/1
f 118/1/1 116/1/1 117/1/1
f 123/2/1 122/2/1 121/2/1
f 124/2/1 122/2/1 123/2/1
f 125/2/1 120/2/1 119/2/1
f 126/2/1 120/2/1 125/2/1
f 131/1/1 128/1/1 127/1/1
f 132/1/1 128/1/1 131/1/1
f 133/1/1 130/1/1 129/1/1
f 134/1/1 130/1/1 133/1/1
f 137/4/1 136/4/1 135/4/1
f 138/4/1 136/4/1 137/4/1
f 141/1/1 140/1/1 139/1/1
f 142/1/1 140/1/1 141/1/1
f 145/2/1 144/2/1 143/2/1
f 146/2/1 144/2/1 145/2/1
f 147/2/1 145/2/1 143/2/1
f 148/2/1 145/2/1 147/2/1
f 151/2/1 150/2/1 149/2/1
f 152/2/1 150/2/1 151/2/1
f 155/3/1 154/3/1 153/3/1
f 156/3/1 154/3/1 155/3/1
f 159/4/1 158/4/1 157/4/1
f 160/4/1 158/4/1 159/4/1
f 163/2/1 162/2/1 161/2/1
f 164/2/1 162/2/1 163/2/1
f 167/2/1 163/2/1 161/2/1
f 168/2/1 163/2/1 167/2/1
f 169/2/1 166/2/1 165/2/1
f 170/2/1 166/2/1 169/2/1
f 174/2/1 171/2/1 170/2/1
f 175/2/1 171/2/1 174/2/1
f 176/2/1 173/2/1 172/2/1
f 177/2/1 173/2/1 176/2/1
f 181/2/1 179/2/1 178/2/1
f 182/2/1 179/2/1 181/2/1
f 183/2/1 179/2/1 182/2/1
f 184/2/1 181/2/1 180/2/1
f 184/2/1 182/2/1 181/2/1
f 185/2/1 182/2/1 184/2/1
f 186/2/1 184/2/1 180/2/1
f 187/2/1 184/2/1 186/2/1
f 190/2/1 189/2/1 188/2/1
f 191/2/1 189/2/1 190/2/1
f 194/1/1 193/1/1 192/1/1
f 195/1/1 193/1/1 194/1/1
f 196/1/2 197/1/2 198/1/2
f 198/1/2 197/1/2 199/1/2
f 200/2/2 201/2/2 202/2/2
f 202/2/2 201/2/2 203/2/2
f 204/2/2 205/2/2 206/2/2
f 206/2/2 205/2/2 207/2/2
f 204/2/2 206/2/2 208/2/2
f 208/2/2 206/2/2 209/2/2
f 210/2/2 211/2/2 212/2/2
f 212/2/2 211/2/2 213/2/2
f 210/2/2 212/2/2 214/2/2
f 214/2/2 212/2/2 215/2/2
f 216/4/2 217/4/2 218/4/2
f 218/4/2 217/4/2 219/4/2
f 220/3/2 221/3/2 222/3/2
f 222/3/2 221/3/2 223/3/2
f 224/2/2 225/2/2 226/2/2
f 226/2/2 225/2/2 227/2/2
f 224/2/2 226/2/2 228/2/2
f 228/2/2 226/2/2 229/2/2
f 230/1/2 231/1/2 232/1/2
f 232/1/2 231/1/2 233/1/2
f 234/4/2 235/4/2 236/4/2
f 236/4/2 235/4/2 237/4/2
f 238/1/2 239/1/2 240/1/2
f 240/1/2 239/1/2 241/1/2
f 242/2/2 243/2/2 244/2/2
f 244/2/2 243/2/2 245/2/2
f 246/1/2 247/1/2 248/1/2
f 248/1/2 247/1/2 249/1/2
f 250/3/2 251/3/2 252/3/2
f 252/3/2 251/3/2 253/3/2
f 254/1/2 255/1/2 256/1/2
f 256/1/2 255/1/2 257/1/2
f 258/1/2 259/1/2 260/1/2
f 260/1/2 259/1/2 261/1/2
f 262/2/2 263/2/2 264/2/2
f 264/2/2 263/2/2 265/2/2
f 266/1/2 267/1/2 271/1/2
f 271/1/2 267/1/2 272/1/2
f 269/1/2 270/1/2 273/1/2
f 268/1/2 269/1/2 273/1/2
f 273/1/2 270/1/2 274/1/2
f 266/1/2 271/1/2 276/1/2
f 276/1/2 271/1/2 277/1/2
f 274/1/2 270/1/2 278/1/2
f 278/1/2 270/1/2 279/1/2
f 275/1/2 276/1/2 280/1/2
f 279/1/2 270/1/2 283/1/2
f 280/1/2 281/1/2 284/1/2
f 275/1/2 280/1/2 284/1/2
f 284/1/2 281/1/2 285/1/2
f 285/1/2 281/1/2 286/1/2
f 282/1/2 283/1/2 289/1/2
f 286/1/2 287/1/2 290/1/2
f 285/1/2 286/1/2 290/1/2
f 288/1/2 289/1/2 291/1/2
f 283/1/2 270/1/2 292/1/2
f 289/1/2 283/1/2 292/1/2
f 291/1/2 289/1/2 292/1/2
f 292/1/2 270/1/2 293/1/2
f 285/1/2 290/1/2 294/1/2
f 290/1/2 291/1/2 294/1/2
f 291/1/2 292/1/2 294/1/2
f 294/1/2 292/1/2 295/1/2
f 298/2/2 299/2/2 300/2/2
f 298/2/2 300/2/2 302/2/2
f 300/2/2 301/2/2 302/2/2
f 302/2/2 301/2/2 303/2/2
f 303/2/2 301/2/2 304/2/2
f 304/2/2 301/2/2 305/2/2
f 296/2/2 297/2/2 306/2/2
f 306/2/2 297/2/2 307/2/2
f 308/1/2 309/1/2 311/1/2
f 311/1/2 309/1/2 312/1/2
f 310/1/2 311/1/2 315/1/2
f 312/1/2 313/1/2 315/1/2
f 311/1/2 312/1/2 315/1/2
f 315/1/2 313/1/2 316/1/2
f 314/1/2 315/1/2 318/1/2
f 316/1/2 317/1/2 318/1/2
f 315/1/2 316/1/2 318/1/2
f 318/1/2 317/1/2 319/1/2
f 314/1/2 318/1/2 320/1/2
f 319/1/2 317/1/2 321/1/2
f 314/1/2 320/1/2 322/1/2
f 320/1/2 321/1/2 322/1/2
f 322/1/2 321/1/2 323/1/2
f 321/1/2 317/1/2 324/1/2
f 323/1/2 321/1/2 324/1/2
f 324/1/2 317/1/2 325/1/2
f 323/1/2 324/1/2 326/1/2
f 326/1/2 324/1/2 327/1/2
f 327/1/2 324/1/2 328/1/2
f 328/1/2 324/1/2 329/1/2
f 327/1/2 328/1/2 330/1/2
f 330/1/2 328/1/2 331/1/2
f 332/2/2 333/2/2 334/2/2
f 334/2/2 333/2/2 335/2/2
f 332/2/2 334/2/2 336/2/2
f 336/2/2 334/2/2 337/2/2
f 335/2/2 333/2/2 338/2/2
f 338/2/2 333/2/2 339/2/2
f 332/2/2 336/2/2 340/2/2
f 339/2/2 333/2/2 343/2/2
f 340/2/2 341/2/2 344/2/2
f 332/2/2 340/2/2 344/2/2
f 344/2/2 341/2/2 345/2/2
f 342/2/2 343/2/2 346/2/2
f 343/2/2 333/2/2 347/2/2
f 346/2/2 343/2/2 347/2/2
f 347/2/2 333/2/2 348/2/2
f 332/2/2 344/2/2 350/2/2
f 350/2/2 344/2/2 351/2/2
f 348/2/2 349/2/2 352/2/2
f 347/2/2 348/2/2 352/2/2
f 352/2/2 349/2/2 353/2/2
f 353/2/2 349/2/2 354/2/2
f 354/2/2 349/2/2 355/2/2
f 356/1/2 357/1/2 358/1/2
f 358/1/2 357/1/2 359/1/2
f 360/2/2 361/2/2 364/2/2
f 364/2/2 361/2/2 365/2/2
f 362/2/2 363/2/2 366/2/2
f 366/2/2 363/2/2 367/2/2
f 368/2/2 369/2/2 373/2/2
f 373/2/2 369/2/2 374/2/2
f 370/2/2 371/2/2 375/2/2
f 375/2/2 371/2/2 376/2/2
f 373/2/2 374/2/2 378/2/2
f 376/2/2 377/2/2 378/2/2
f 375/2/2 376/2/2 378/2/2
f 374/2/2 375/2/2 378/2/2
f 372/2/2 373/2/2 378/2/2
f 378/2/2 377/2/2 379/2/2
f 380/2/2 381/2/2 382/2/2
f 382/2/2 381/2/2 383/2/2
f 384/1/2 385/1/2 386/1/2
f 386/1/2 385/1/2 387/1/2
f 388/2/2 389/2/2 390/2/2
f 390/2/2 389/2/2 391/2/2
f 392/2/2 393/2/2 394/2/2
f 394/2/2 393/2/2 395/2/2
f 400/2/3 397/2/3 396/2/3
f 403/3/3 399/3/3 398/3/3
f 404/4/3 403/4/3 402/4/3
f 405/3/3 399/3/3 403/3/3
f 405/4/3 403/4/3 404/4/3
f 406/3/3 399/3/3 405/3/3
f 407/3/3 399/3/3 406/3/3
f 408/2/3 401/2/3 400/2/3
f 413/3/3 411/3/3 410/3/3
f 414/2/3 409/2/3 408/2/3
f 416/4/3 413/4/3 412/4/3
f 417/3/3 411/3/3 413/3/3
f 417/4/3 413/4/3 416/4/3
f 418/3/3 411/3/3 417/3/3
f 419/3/3 411/3/3 418/3/3
f 420/2/3 400/2/3 396/2/3
f 420/2/3 408/2/3 400/2/3
f 420/2/3 415/2/3 414/2/3
f 420/2/3 414/2/3 408/2/3
f 421/2/3 415/2/3 420/2/3
f 424/2/3 423/2/3 422/2/3
f 425/2/3 423/2/3 424/2/3
f 429/1/3 427/1/3 426/1/3
f 430/1/3 427/1/3 429/1/3
f 431/1/3 427/1/3 430/1/3
f 432/1/3 427/1/3 431/1/3
f 434/2/3 423/2/3 425/2/3
f 435/2/3 423/2/3 434/2/3
f 437/1/3 429/1/3 428/1/3
f 437/1/3 430/1/3 429/1/3
f 438/1/3 430/1/3 437/1/3
f 439/1/3 430/1/3 438/1/3
f 440/1/3 437/1/3 436/1/3
f 440/1/3 438/1/3 437/1/3
f 442/1/3 441/1/3 440/1/3
f 443/1/3 433/1/3 432/1/3
f 443/1/3 432/1/3 431/1/3
f 444/2/3 423/2/3 435/2/3
f 445/2/3 423/2/3 444/2/3
f 446/1/3 442/1/3 440/1/3
f 446/1/3 443/1/3 442/1/3
f 447/1/3 433/1/3 443/1/3
f 447/1/3 443/1/3 446/1/3
f 448/1/3 440/1/3 436/1/3
f 448/1/3 446/1/3 440/1/3
f 449/1/3 446/1/3 448/1/3
f 450/2/3 423/2/3 445/2/3
f 451/2/3 423/2/3 450/2/3
f 452/1/3 448/1/3 436/1/3
f 453/1/3 448/1/3 452/1/3
f 454/1/3 448/1/3 453/1/3
f 456/1/3 455/1/3 454/1/3
f 456/1/3 454/1/3 453/1/3
f 457/1/3 455/1/3 456/1/3
f 458/1/3 455/1/3 457/1/3
f 459/1/3 433/1/3 447/1/3
f 460/1/3 433/1/3 459/1/3
f 461/1/3 433/1/3 460/1/3
f 462/1/3 458/1/3 457/1/3
f 462/1/3 460/1/3 459/1/3
f 462/1/3 459/1/3 458/1/3
f 463/1/3 460/1/3 462/1/3
f 465/2/3 452/2/3 451/2/3
f 466/2/3 465/2/3 464/2/3
f 467/2/3 465/2/3 466/2/3
f 468/2/3 465/2/3 467/2/3
f 469/2/3 452/2/3 465/2/3
f 469/2/3 465/2/3 468/2/3
f 474/1/3 471/1/3 470/1/3
f 475/1/3 471/1/3 474/1/3
f 476/1/3 473/1/3 472/1/3
f 477/1/3 473/1/3 476/1/3
f 478/1/3 474/1/3 470/1/3
f 479/1/3 474/1/3 478/1/3
f 482/1/3 481/1/3 480/1/3
f 485/1/3 473/1/3 477/1/3
f 486/1/3 483/1/3 482/1/3
f 486/1/3 482/1/3 480/1/3
f 487/1/3 483/1/3 486/1/3
f 489/1/3 485/1/3 484/1/3
f 490/1/3 473/1/3 485/1/3
f 490/1/3 485/1/3 489/1/3
f 491/1/3 488/1/3 487/1/3
f 492/1/3 488/1/3 491/1/3
f 495/2/3 494/2/3 493/2/3
f 496/2/3 494/2/3 495/2/3
f 499/2/3 498/2/3 497/2/3
f 500/2/3 498/2/3 499/2/3
f 503/1/3 502/1/3 501/1/3
f 504/1/3 502/1/3 503/1/3
f 507/1/3 506/1/3 505/1/3
f 508/1/3 506/1/3 507/1/3
f 513/1/3 510/1/3 509/1/3
f 514/1/3 510/1/3 513/1/3
f 515/1/3 512/1/3 511/1/3
f 516/1/3 512/1/3 515/1/3
f 519/2/3 518/2/3 517/2/3
f 520/2/3 518/2/3 519/2/3
f 523/2/3 522/2/3 521/2/3
f 524/2/3 522/2/3 523/2/3
f 529/1/3 526/1/3 525/1/3
f 530/1/3 526/1/3 529/1/3
f 531/1/3 528/1/3 527/1/3
f 532/1/3 528/1/3 531/1/3
f 537/1/3 534/1/3 533/1/3
f 538/1/3 534/1/3 537/1/3
f 539/1/3 536/1/3 535/1/3
f 540/1/3 536/1/3 539/1/3
f 545/1/3 542/1/3 541/1/3
f 546/1/3 542/1/3 545/1/3
f 547/1/3 544/1/3 543/1/3
f 548/1/3 544/1/3 547/1/3
f 553/2/3 550/2/3 549/2/3
f 554/2/3 552/2/3 551/2/3
f 555/2/3 552/2/3 554/2/3
f 557/2/3 554/2/3 553/2/3
f 557/2/3 556/2/3 555/2/3
f 557/2/3 555/2/3 554/2/3
f 558/2/3 556/2/3 557/2/3
f 559/2/3 557/2/3 553/2/3
f 560/2/3 557/2/3 559/2/3
f 561/2/3 553/2/3 549/2/3
f 561/2/3 559/2/3 553/2/3
f 562/2/3 559/2/3 561/2/3
f 565/2/3 564/2/3 563/2/3
f 566/2/3 564/2/3 565/2/3
f 567/2/3 565/2/3 563/2/3
f 568/2/3 565/2/3 567/2/3
f 571/1/3 570/1/3 569/1/3
f 572/1/3 570/1/3 571/1/3
f 575/1/3 574/1/3 573/1/3
f 576/1/3 574/1/3 575/1/3
f 579/1/3 578/1/3 577/1/3
f 580/1/3 578/1/3 579/1/3
f 583/1/3 582/1/3 581/1/3
f 584/1/3 582/1/3 583/1/3
f 587/2/3 586/2/3 585/2/3
f 588/2/3 586/2/3 587/2/3
f 591/2/3 590/2/3 589/2/3
f 592/2/3 590/2/3 591/2/3
f 593/1/4 594/1/4 595/1/4
f 595/1/4 594/1/4 596/1/4
f 597/1/4 598/1/4 599/1/4
f 599/1/4 598/1/4 600/1/4
f 601/1/4 602/1/4 603/1/4
f 603/1/4 602/1/4 604/1/4
f 605/1/4 606/1/4 607/1/4
f 607/1/4 606/1/4 608/1/4
f 609/2/4 610/2/4 611/2/4
f 611/2/4 610/2/4 612/2/4
f 613/2/4 614/2/4 617/2/4
f 615/2/4 616/2/4 618/2/4
f 618/2/4 616/2/4 619/2/4
f 618/2/4 619/2/4 621/2/4
f 619/2/4 620/2/4 621/2/4
f 617/2/4 618/2/4 621/2/4
f 621/2/4 620/2/4 622/2/4
f 617/2/4 621/2/4 623/2/4
f 623/2/4 621/2/4 624/2/4
f 613/2/4 617/2/4 625/2/4
f 617/2/4 623/2/4 625/2/4
f 625/2/4 623/2/4 626/2/4
f 627/2/4 628/2/4 629/2/4
f 629/2/4 628/2/4 630/2/4
f 630/2/4 628/2/4 631/2/4
f 631/2/4 632/2/4 633/2/4
f 630/2/4 631/2/4 633/2/4
f 633/2/4 632/2/4 634/2/4
f 635/1/4 636/1/4 639/1/4
f 639/1/4 636/1/4 640/1/4
f 637/1/4 638/1/4 641/1/4
f 641/1/4 638/1/4 642/1/4
f 643/1/4 644/1/4 647/1/4
f 647/1/4 644/1/4 648/1/4
f 645/1/4 646/1/4 649/1/4
f 649/1/4 646/1/4 650/1/4
f 651/1/4 652/1/4 655/1/4
f 655/1/4 652/1/4 656/1/4
f 653/1/4 654/1/4 657/1/4
f 657/1/4 654/1/4 658/1/4
f 659/2/4 660/2/4 661/2/4
f 661/2/4 660/2/4 662/2/4
f 663/2/4 664/2/4 665/2/4
f 663/2/4 665/2/4 667/2/4
f 665/2/4 666/2/4 667/2/4
f 667/2/4 666/2/4 668/2/4
f 669/1/4 670/1/4 671/1/4
f 671/1/4 670/1/4 672/1/4
f 673/1/4 674/1/4 677/1/4
f 677/1/4 674/1/4 678/1/4
f 675/2/4 676/2/4 679/2/4
f 675/2/4 679/2/4 684/2/4
f 684/2/4 679/2/4 685/2/4
f 680/1/4 681/1/4 686/1/4
f 686/1/4 681/1/4 687/1/4
f 682/1/4 683/1/4 688/1/4
f 688/1/4 683/1/4 689/1/4
f 690/2/4 691/2/4 692/2/4
f 692/2/4 691/2/4 693/2/4
f 694/1/4 695/1/4 698/1/4
f 698/1/4 695/1/4 699/1/4
f 696/1/4 697/1/4 700/1/4
f 700/1/4 697/1/4 701/1/4
f 702/2/4 703/2/4 704/2/4
f 704/2/4 703/2/4 705/2/4
f 706/1/4 707/1/4 708/1/4
f 708/1/4 707/1/4 709/1/4
f 710/2/4 711/2/4 714/2/4
f 714/2/4 711/2/4 715/2/4
f 712/2/4 713/2/4 717/2/4
f 716/2/4 717/2/4 718/2/4
f 717/2/4 713/2/4 719/2/4
f 718/2/4 717/2/4 719/2/4
f 720/2/4 721/2/4 722/2/4
f 722/2/4 721/2/4 723/2/4
f 720/2/4 722/2/4 726/2/4
f 726/2/4 722/2/4 727/2/4
f 724/2/4 725/2/4 729/2/4
f 720/2/4 726/2/4 730/2/4
f 728/2/4 729/2/4 732/2/4
f 732/2/4 729/2/4 733/2/4
f 733/2/4 729/2/4 734/2/4
f 729/2/4 725/2/4 735/2/4
f 734/2/4 729/2/4 735/2/4
f 730/2/4 731/2/4 736/2/4
f 720/2/4 730/2/4 736/2/4
f 736/2/4 731/2/4 737/2/4
f 738/2/4 739/2/4 740/2/4
f 740/2/4 739/2/4 741/2/4
f 741/2/4 739/2/4 742/2/4
f 742/2/4 739/2/4 743/2/4
f 744/2/4 745/2/4 746/2/4
f 746/2/4 745/2/4 747/2/4
f 748/2/4 749/2/4 750/2/4
f 750/2/4 749/2/4 751/2/4
f 752/2/4 753/2/4 755/2/4
f 754/2/4 755/2/4 756/2/4
f 755/2/4 753/2/4 757/2/4
f 756/2/4 755/2/4 757/2/4
f 758/2/4 759/2/4 760/2/4
f 760/2/4 759/2/4 761/2/4
f 761/2/4 759/2/4 762/2/4
f 762/2/4 759/2/4 763/2/4
f 764/2/4 765/2/4 767/2/4
f 766/2/4 767/2/4 768/2/4
f 767/2/4 765/2/4 769/2/4
f 768/2/4 767/2/4 769/2/4
f 770/2/4 771/2/4 773/2/4
f 773/2/4 771/2/4 774/2/4
f 774/2/4 771/2/4 775/2/4
f 772/2/4 773/2/4 777/2/4
f 773/2/4 774/2/4 777/2/4
f 777/2/4 774/2/4 778/2/4
f 778/2/4 774/2/4 779/2/4
f 776/2/4 777/2/4 780/2/4
f 777/2/4 778/2/4 780/2/4
f 780/2/4 778/2/4 781/2/4
f 781/2/4 778/2/4 782/2/4
f 782/2/4 783/2/4 784/2/4
f 781/2/4 782/2/4 784/2/4
f 784/2/4 783/2/4 785/2/4
f 785/2/4 783/2/4 786/2/4
f 785/2/4 786/2/4 788/2/4
f 786/2/4 787/2/4 788/2/4
f 788/2/4 787/2/4 789/2/4
f 793/2/5 791/2/5 790/2/5
f 794/2/5 791/2/5 793/2/5
f 796/2/5 793/2/5 792/2/5
f 796/2/5 795/2/5 794/2/5
f 796/2/5 794/2/5 793/2/5
f 797/2/5 795/2/5 796/2/5
f 798/2/5 795/2/5 797/2/5
f 799/2/5 795/2/5 798/2/5
f 800/2/5 798/2/5 797/2/5
f 801/2/5 798/2/5 800/2/5
f 806/1/5 803/1/5 802/1/5
f 807/1/5 803/1/5 806/1/5
f 808/1/5 805/1/5 804/1/5
f 809/1/5 805/1/5 808/1/5
f 814/2/5 811/2/5 810/2/5
f 815/2/5 811/2/5 814/2/5
f 816/2/5 813/2/5 812/2/5
f 817/2/5 813/2/5 816/2/5
f 818/2/5 814/2/5 810/2/5
f 819/2/5 811/2/5 815/2/5
f 820/2/5 816/2/5 812/2/5
f 821/2/5 813/2/5 817/2/5
f 822/2/5 818/2/5 810/2/5
f 822/2/5 819/2/5 818/2/5
f 823/2/5 811/2/5 819/2/5
f 823/2/5 819/2/5 822/2/5
f 824/2/5 821/2/5 820/2/5
f 824/2/5 820/2/5 812/2/5
f 825/2/5 821/2/5 824/2/5
f 826/2/5 821/2/5 825/2/5
f 827/2/5 813/2/5 821/2/5
f 827/2/5 821/2/5 826/2/5
f 833/2/5 829/2/5 828/2/5
f 834/2/5 831/2/5 830/2/5
f 835/2/5 831/2/5 834/2/5
f 836/2/5 833/2/5 832/2/5
f 837/2/5 829/2/5 833/2/5
f 837/2/5 833/2/5 836/2/5
f 840/2/5 839/2/5 838/2/5
f 841/2/5 839/2/5 840/2/5
f 844/2/5 843/2/5 842/2/5
f 845/2/5 843/2/5 844/2/5
f 850/2/5 847/2/5 846/2/5
f 851/2/5 847/2/5 850/2/5
f 852/2/5 849/2/5 848/2/5
f 853/2/5 849/2/5 852/2/5
f 858/2/5 855/2/5 854/2/5
f 859/2/5 855/2/5 858/2/5
f 860/2/5 855/2/5 859/2/5
f 861/2/5 855/2/5 860/2/5
f 862/2/5 857/2/5 856/2/5
f 863/2/5 857/2/5 862/2/5
f 864/2/5 857/2/5 863/2/5
f 865/2/5 857/2/5 864/2/5
f 866/2/5 860/2/5 859/2/5
f 867/2/5 860/2/5 866/2/5
f 868/2/5 864/2/5 863/2/5
f 869/2/5 864/2/5 868/2/5
f 872/2/5 871/2/5 870/2/5
f 873/2/5 871/2/5 872/2/5
f 876/2/5 875/2/5 874/2/5
f 877/2/5 875/2/5 876/2/5
f 880/2/5 879/2/5 878/2/5
f 881/2/5 879/2/5 880/2/5
f 884/2/5 883/2/5 882/2/5
f 885/2/5 883/2/5 884/2/5
f 888/2/5 887/2/5 886/2/5
f 889/2/5 887/2/5 888/2/5
f 892/2/5 891/2/5 890/2/5
f 893/2/5 891/2/5 892/2/5
f 897/1/5 895/1/5 894/1/5
f 899/1/5 897/1/5 896/1/5
f 900/1/5 895/1/5 897/1/5
f 900/1/5 897/1/5 899/1/5
f 901/1/5 895/1/5 900/1/5
f 902/1/5 899/1/5 898/1/5
f 902/1/5 900/1/5 899/1/5
f 903/1/5 900/1/5 902/1/5
f 904/1/5 900/1/5 903/1/5
f 906/1/5 905/1/5 904/1/5
f 906/1/5 904/1/5 903/1/5
f 908/1/5 906/1/5 903/1/5
f 908/1/5 907/1/5 906/1/5
f 909/1/5 907/1/5 908/1/5
f 914/1/5 911/1/5 910/1/5
f 915/1/5 911/1/5 914/1/5
f 916/1/5 913/1/5 912/1/5
f 917/1/5 913/1/5 916/1/5
f 922/1/5 919/1/5 918/1/5
f 923/1/5 919/1/5 922/1/5
f 924/1/5 921/1/5 920/1/5
f 925/1/5 921/1/5 924/1/5
f 930/1/5 927/1/5 926/1/5
f 931/1/5 927/1/5 930/1/5
f 932/1/5 929/1/5 928/1/5
f 933/1/5 929/1/5 932/1/5
f 938/1/5 935/1/5 934/1/5
f 939/1/5 935/1/5 938/1/5
f 940/1/5 937/1/5 936/1/5
f 941/1/5 937/1/5 940/1/5
f 943/1/5 942/1/5 941/1/5
f 944/1/5 942/1/5 943/1/5
f 947/1/5 946/1/5 945/1/5
f 948/1/5 946/1/5 947/1/5
f 953/1/5 950/1/5 949/1/5
f 954/1/5 950/1/5 953/1/5
f 955/1/5 952/1/5 951/1/5
f 956/1/5 952/1/5 955/1/5
f 961/4/5 958/4/5 957/4/5
f 962/4/5 958/4/5 961/4/5
f 963/4/5 960/4/5 959/4/5
f 964/4/5 960/4/5 963/4/5
f 973/3/5 966/3/5 965/3/5
f 974/3/5 966/3/5 973/3/5
f 975/3/5 968/3/5 967/3/5
f 976/3/5 968/3/5 975/3/5
f 977/3/5 970/3/5 969/3/5
f 978/3/5 970/3/5 977/3/5
f 979/3/5 972/3/5 971/3/5
f 980/3/5 972/3/5 979/3/5
f 981/2/6 982/2/6 983/2/6
f 983/2/6 982/2/6 984/2/6
f 985/2/6 986/2/6 987/2/6
f 987/2/6 986/2/6 988/2/6
f 989/2/6 990/2/6 991/2/6
f 991/2/6 990/2/6 992/2/6
f 993/2/6 994/2/6 995/2/6
f 995/2/6 994/2/6 996/2/6
f 997/2/6 998/2/6 999/2/6
f 999/2/6 998/2/6 1000/2/6
f 1001/2/6 1002/2/6 1003/2/6
f 1003/2/6 1002/2/6 1004/2/6
f 1005/2/6 1006/2/6 1007/2/6
f 1007/2/6 1006/2/6 1008/2/6
f 1009/2/6 1010/2/6 1011/2/6
f 1011/2/6 1010/2/6 1012/2/6
f 1015/2/6 1016/2/6 1017/2/6
f 1017/2/6 1016/2/6 1018/2/6
f 1013/2/6 1014/2/6 1019/2/6
f 1019/2/6 1014/2/6 1020/2/6
f 1021/2/6 1022/2/6 1023/2/6
f 1023/2/6 1022/2/6 1024/2/6
f 1025/2/6 1026/2/6 1027/2/6
f 1027/2/6 1026/2/6 1028/2/6
f 1029/2/6 1030/2/6 1031/2/6
f 1031/2/6 1030/2/6 1032/2/6
f 1033/2/6 1034/2/6 1035/2/6
f 1035/2/6 1034/2/6 1036/2/6
f 1039/2/6 1040/2/6 1041/2/6
f 1041/2/6 1040/2/6 1042/2/6
f 1037/2/6 1038/2/6 1043/2/6
f 1043/2/6 1038/2/6 1044/2/6
f 1045/2/6 1046/2/6 1047/2/6
f 1047/2/6 1046/2/6 1048/2/6
f 1049/2/6 1050/2/6 1053/2/6
f 1053/2/6 1050/2/6 1054/2/6
f 1051/2/6 1052/2/6 1055/2/6
f 1055/2/6 1052/2/6 1056/2/6
f 1057/2/6 1058/2/6 1060/2/6
f 1060/2/6 1058/2/6 1061/2/6
f 1061/2/6 1058/2/6 1062/2/6
f 1059/2/6 1060/2/6 1065/2/6
f 1060/2/6 1061/2/6 1065/2/6
f 1065/2/6 1061/2/6 1066/2/6
f 1063/2/6 1064/2/6 1067/2/6
f 1067/2/6 1064/2/6 1068/2/6
f 1069/2/6 1070/2/6 1072/2/6
f 1072/2/6 1070/2/6 1073/2/6
f 1071/2/6 1072/2/6 1074/2/6
f 1074/2/6 1072/2/6 1075/2/6
f 1071/2/6 1074/2/6 1076/2/6
f 1076/2/6 1077/2/6 1078/2/6
f 1076/2/6 1078/2/6 1080/2/6
f 1078/2/6 1079/2/6 1080/2/6
f 1071/2/6 1076/2/6 1080/2/6
f 1080/2/6 1079/2/6 1081/2/6
f 1081/2/6 1079/2/6 1082/2/6
f 1081/2/6 1082/2/6 1084/2/6
f 1082/2/6 1083/2/6 1084/2/6
f 1084/2/6 1083/2/6 1085/2/6
f 1081/2/6 1084/2/6 1086/2/6
f 1086/2/6 1084/2/6 1087/2/6
f 1085/2/6 1083/2/6 1088/2/6
f 1088/2/6 1083/2/6 1089/2/6
f 1090/2/6 1091/2/6 1092/2/6
f 1092/2/6 1091/2/6 1093/2/6
f 1093/2/6 1091/2/6 1094/2/6
f 1094/2/6 1091/2/6 1095/2/6
f 1095/2/6 1091/2/6 1097/2/6
f 1096/2/6 1097/2/6 1098/2/6
f 1097/2/6 1091/2/6 1099/2/6
f 1098/2/6 1097/2/6 1099/2/6
f 1099/2/6 1091/2/6 1100/2/6
f 1100/2/6 1091/2/6 1101/2/6
f 1102/1/6 1103/1/6 1106/1/6
f 1106/1/6 1103/1/6 1107/1/6
f 1104/1/6 1105/1/6 1108/1/6
f 1108/1/6 1105/1/6 1109/1/6
f 1110/3/6 1111/3/6 1114/3/6
f 1114/3/6 1111/3/6 1115/3/6
f 1112/3/6 1113/3/6 1116/3/6
f 1116/3/6 1113/3/6 1117/3/6
f 1118/1/6 1119/1/6 1120/1/6
f 1120/1/6 1119/1/6 1121/1/6
f 1122/1/6 1123/1/6 1124/1/6
f 1124/1/6 1123/1/6 1125/1/6
f 1126/1/6 1127/1/6 1130/1/6
f 1130/1/6 1127/1/6 1131/1/6
f 1128/1/6 1129/1/6 1132/1/6
f 1132/1/6 1129/1/6 1133/1/6
f 1134/1/6 1135/1/6 1138/1/6
f 1138/1/6 1135/1/6 1139/1/6
f 1136/1/6 1137/1/6 1140/1/6
f 1140/1/6 1137/1/6 1141/1/6
f 1142/1/6 1143/1/6 1146/1/6
f 1146/1/6 1143/1/6 1147/1/6
f 1144/1/6 1145/1/6 1148/1/6
f 1148/1/6 1145/1/6 1149/1/6
f 1150/1/6 1151/1/6 1152/1/6
f 1152/1/6 1151/1/6 1153/1/6
f 1154/1/6 1155/1/6 1158/1/6
f 1158/1/6 1155/1/6 1159/1/6
f 1156/1/6 1157/1/6 1160/1/6
f 1160/1/6 1157/1/6 1161/1/6
f 1162/1/6 1163/1/6 1164/1/6
f 1164/1/6 1163/1/6 1165/1/6
f 1166/1/6 1167/1/6 1168/1/6
f 1168/1/6 1167/1/6 1169/1/6
f 1166/1/6 1168/1/6 1170/1/6
f 1169/1/6 1167/1/6 1171/1/6
f 1166/1/6 1170/1/6 1172/1/6
f 1170/1/6 1171/1/6 1172/1/6
f 1171/1/6 1167/1/6 1173/1/6
f 1172/1/6 1171/1/6 1173/1/6
f 1174/1/6 1175/1/6 1176/1/6
f 1176/1/6 1175/1/6 1177/1/6
f 1174/1/6 1176/1/6 1178/1/6
f 1177/1/6 1175/1/6 1179/1/6
f 1174/1/6 1178/1/6 1180/1/6
f 1178/1/6 1179/1/6 1180/1/6
f 1179/1/6 1175/1/6 1181/1/6
f 1180/1/6 1179/1/6 1181/1/6
f 1182/1/6 1183/1/6 1184/1/6
f 1184/1/6 1183/1/6 1185/1/6
