# MagicaVoxel @ Ephtracy

# group
g ROCK 1

# material
mtllib ROCK 1.mtl
usemtl palette

# normals
vn -1 0 0
vn 1 0 0
vn 0 0 1
vn 0 0 -1
vn 0 -1 0
vn 0 1 0

# texcoords
vt 0.986328 0.5

# verts
v -17 0 2
v -17 0 -9
v -17 14 2
v -17 14 -9
v -16 0 3
v -16 0 2
v -16 0 -9
v -16 0 -10
v -16 14 3
v -16 14 2
v -16 14 1
v -16 14 -8
v -16 14 -9
v -16 14 -10
v -16 15 1
v -16 15 -8
v -15 14 2
v -15 14 1
v -15 14 -8
v -15 14 -9
v -15 15 2
v -15 15 1
v -15 15 -8
v -15 15 -9
v -10 0 9
v -10 0 3
v -10 8 -9
v -10 8 -10
v -10 9 -10
v -10 9 -11
v -10 14 3
v -10 14 2
v -10 14 -9
v -10 14 -10
v -10 15 2
v -10 15 -9
v -10 16 -10
v -10 16 -11
v -10 17 -9
v -10 17 -10
v -10 21 9
v -10 21 -10
v -9 0 -10
v -9 0 -11
v -9 6 10
v -9 6 9
v -9 9 -10
v -9 9 -11
v -9 14 -9
v -9 14 -10
v -9 16 -10
v -9 16 -11
v -9 17 -9
v -9 17 -10
v -9 21 10
v -9 21 9
v -9 21 8
v -9 21 -8
v -9 21 -10
v -9 21 -11
v -9 22 8
v -9 22 -8
v -8 0 10
v -8 0 9
v -8 6 10
v -8 6 9
v -8 21 9
v -8 21 8
v -8 21 -8
v -8 21 -10
v -8 22 9
v -8 22 8
v -8 22 -8
v -8 22 -10
v 4 0 16
v 4 0 10
v 4 17 16
v 4 17 10
v 5 0 17
v 5 0 16
v 5 0 -11
v 5 0 -15
v 5 6 -11
v 5 6 -15
v 5 17 17
v 5 17 16
v 5 17 15
v 5 17 10
v 5 18 15
v 5 18 10
v 6 17 16
v 6 17 15
v 6 18 16
v 6 18 15
v 8 20 -10
v 8 20 -11
v 8 21 -10
v 8 21 -11
v 10 20 10
v 10 20 9
v 10 21 10
v 10 21 9
v 15 16 5
v 15 16 4
v 15 17 5
v 15 17 4
v -11 8 -9
v -11 8 -10
v -11 14 -9
v -11 14 -10
v 5 20 -10
v 5 20 -11
v 5 21 -10
v 5 21 -11
v 9 6 -10
v 9 6 -11
v 9 7 -10
v 9 7 -11
v 9 20 10
v 9 20 9
v 9 21 10
v 9 21 9
v 9 21 8
v 9 21 3
v 9 21 -1
v 9 21 -9
v 9 21 -10
v 9 22 9
v 9 22 8
v 9 22 3
v 9 22 -1
v 9 22 -9
v 9 22 -10
v 10 7 -10
v 10 7 -11
v 10 21 8
v 10 21 3
v 10 21 -1
v 10 21 -9
v 10 21 -10
v 10 21 -11
v 10 22 8
v 10 22 3
v 10 22 -1
v 10 22 -9
v 11 0 4
v 11 0 -8
v 11 6 -8
v 11 6 -10
v 11 17 5
v 11 17 4
v 11 18 10
v 11 18 5
v 11 21 10
v 11 21 -10
v 12 0 -8
v 12 0 -15
v 12 6 -8
v 12 6 -15
v 13 16 5
v 13 16 4
v 13 17 5
v 13 17 4
v 15 17 16
v 15 17 15
v 15 17 6
v 15 17 5
v 15 18 16
v 15 18 15
v 15 18 6
v 15 18 5
v 16 0 17
v 16 0 16
v 16 0 5
v 16 0 4
v 16 1 16
v 16 1 15
v 16 3 16
v 16 3 15
v 16 17 17
v 16 17 16
v 16 17 15
v 16 17 6
v 16 17 5
v 16 17 4
v 16 18 15
v 16 18 6
v 17 0 16
v 17 0 5
v 17 1 16
v 17 1 15
v 17 3 16
v 17 3 15
v 17 17 16
v 17 17 5
v 5 0 17
v 5 17 17
v 16 0 17
v 16 17 17
v 4 0 16
v 4 17 16
v 5 0 16
v 5 17 16
v 6 17 16
v 6 18 16
v 15 17 16
v 15 18 16
v 16 0 16
v 16 1 16
v 16 3 16
v 16 17 16
v 17 0 16
v 17 1 16
v 17 3 16
v 17 17 16
v 5 17 15
v 5 18 15
v 6 17 15
v 6 18 15
v 15 17 15
v 15 18 15
v 16 1 15
v 16 3 15
v 16 17 15
v 16 18 15
v 17 1 15
v 17 3 15
v -9 6 10
v -9 21 10
v -8 0 10
v -8 6 10
v 4 0 10
v 4 17 10
v 5 17 10
v 5 18 10
v 9 20 10
v 9 21 10
v 10 20 10
v 10 21 10
v 11 18 10
v 11 21 10
v -10 0 9
v -10 21 9
v -9 6 9
v -9 21 9
v -8 0 9
v -8 6 9
v -8 21 9
v -8 22 9
v 9 20 9
v 9 21 9
v 9 22 9
v 10 20 9
v 10 21 9
v -9 21 8
v -9 22 8
v -8 21 8
v -8 22 8
v 9 21 8
v 9 22 8
v 10 21 8
v 10 22 8
v -16 0 3
v -16 14 3
v -10 0 3
v -10 14 3
v -17 0 2
v -17 14 2
v -16 0 2
v -16 14 2
v -15 14 2
v -15 15 2
v -10 14 2
v -10 15 2
v -16 14 1
v -16 15 1
v -15 14 1
v -15 15 1
v 9 21 -1
v 9 22 -1
v 10 21 -1
v 10 22 -1
v 11 0 -8
v 11 6 -8
v 12 0 -8
v 12 6 -8
v -10 14 -10
v -10 16 -10
v -9 14 -10
v -9 16 -10
v 15 17 6
v 15 18 6
v 16 17 6
v 16 18 6
v 11 17 5
v 11 18 5
v 13 16 5
v 13 17 5
v 15 16 5
v 15 17 5
v 15 18 5
v 16 0 5
v 16 17 5
v 17 0 5
v 17 17 5
v 11 0 4
v 11 17 4
v 13 16 4
v 13 17 4
v 15 16 4
v 15 17 4
v 16 0 4
v 16 17 4
v 9 21 3
v 9 22 3
v 10 21 3
v 10 22 3
v -16 14 -8
v -16 15 -8
v -15 14 -8
v -15 15 -8
v -9 21 -8
v -9 22 -8
v -8 21 -8
v -8 22 -8
v -17 0 -9
v -17 14 -9
v -16 0 -9
v -16 14 -9
v -15 14 -9
v -15 15 -9
v -11 8 -9
v -11 14 -9
v -10 8 -9
v -10 14 -9
v -10 15 -9
v -10 17 -9
v -9 14 -9
v -9 17 -9
v 9 21 -9
v 9 22 -9
v 10 21 -9
v 10 22 -9
v -16 0 -10
v -16 14 -10
v -11 8 -10
v -11 14 -10
v -10 8 -10
v -10 9 -10
v -10 17 -10
v -10 21 -10
v -9 0 -10
v -9 9 -10
v -9 17 -10
v -9 21 -10
v -8 21 -10
v -8 22 -10
v 5 20 -10
v 5 21 -10
v 8 20 -10
v 8 21 -10
v 9 6 -10
v 9 7 -10
v 9 21 -10
v 9 22 -10
v 10 7 -10
v 10 21 -10
v 11 6 -10
v 11 21 -10
v -10 9 -11
v -10 16 -11
v -9 0 -11
v -9 9 -11
v -9 16 -11
v -9 21 -11
v 5 0 -11
v 5 6 -11
v 5 20 -11
v 5 21 -11
v 8 20 -11
v 8 21 -11
v 9 6 -11
v 9 7 -11
v 10 7 -11
v 10 21 -11
v 5 0 -15
v 5 6 -15
v 12 0 -15
v 12 6 -15
v 5 0 17
v 16 0 17
v 4 0 16
v 5 0 16
v 16 0 16
v 17 0 16
v -8 0 10
v 4 0 10
v -10 0 9
v -8 0 9
v 16 0 5
v 17 0 5
v 11 0 4
v 16 0 4
v -16 0 3
v -10 0 3
v -17 0 2
v -16 0 2
v 11 0 -8
v 12 0 -8
v -17 0 -9
v -16 0 -9
v -16 0 -10
v -9 0 -10
v -9 0 -11
v 5 0 -11
v 5 0 -15
v 12 0 -15
v 16 3 16
v 17 3 16
v 16 3 15
v 17 3 15
v -9 6 10
v -8 6 10
v -9 6 9
v -8 6 9
v 9 7 -10
v 10 7 -10
v 9 7 -11
v 10 7 -11
v -10 9 -10
v -9 9 -10
v -10 9 -11
v -9 9 -11
v -10 17 -9
v -9 17 -9
v -10 17 -10
v -9 17 -10
v 16 1 16
v 17 1 16
v 16 1 15
v 17 1 15
v 11 6 -8
v 12 6 -8
v 9 6 -10
v 11 6 -10
v 5 6 -11
v 9 6 -11
v 5 6 -15
v 12 6 -15
v -11 8 -9
v -10 8 -9
v -11 8 -10
v -10 8 -10
v -16 14 3
v -10 14 3
v -17 14 2
v -16 14 2
v -15 14 2
v -10 14 2
v -16 14 1
v -15 14 1
v -16 14 -8
v -15 14 -8
v -17 14 -9
v -16 14 -9
v -15 14 -9
v -11 14 -9
v -10 14 -9
v -9 14 -9
v -16 14 -10
v -11 14 -10
v -10 14 -10
v -9 14 -10
v -15 15 2
v -10 15 2
v -16 15 1
v -15 15 1
v -16 15 -8
v -15 15 -8
v -15 15 -9
v -10 15 -9
v 13 16 5
v 15 16 5
v 13 16 4
v 15 16 4
v -10 16 -10
v -9 16 -10
v -10 16 -11
v -9 16 -11
v 5 17 17
v 16 17 17
v 4 17 16
v 5 17 16
v 6 17 16
v 15 17 16
v 16 17 16
v 17 17 16
v 5 17 15
v 6 17 15
v 15 17 15
v 16 17 15
v 4 17 10
v 5 17 10
v 15 17 6
v 16 17 6
v 11 17 5
v 13 17 5
v 15 17 5
v 16 17 5
v 17 17 5
v 11 17 4
v 13 17 4
v 15 17 4
v 16 17 4
v 6 18 16
v 15 18 16
v 5 18 15
v 6 18 15
v 15 18 15
v 16 18 15
v 5 18 10
v 11 18 10
v 15 18 6
v 16 18 6
v 11 18 5
v 15 18 5
v 9 20 10
v 10 20 10
v 9 20 9
v 10 20 9
v 5 20 -10
v 8 20 -10
v 5 20 -11
v 8 20 -11
v -9 21 10
v 9 21 10
v 10 21 10
v 11 21 10
v -10 21 9
v -9 21 9
v -8 21 9
v 9 21 9
v 10 21 9
v -9 21 8
v -8 21 8
v 9 21 8
v 10 21 8
v 9 21 3
v 10 21 3
v 9 21 -1
v 10 21 -1
v -9 21 -8
v -8 21 -8
v 9 21 -9
v 10 21 -9
v -10 21 -10
v -9 21 -10
v -8 21 -10
v 5 21 -10
v 8 21 -10
v 9 21 -10
v 10 21 -10
v 11 21 -10
v -9 21 -11
v 5 21 -11
v 8 21 -11
v 10 21 -11
v -8 22 9
v 9 22 9
v -9 22 8
v -8 22 8
v 9 22 8
v 10 22 8
v 9 22 3
v 10 22 3
v 9 22 -1
v 10 22 -1
v -9 22 -8
v -8 22 -8
v 9 22 -9
v 10 22 -9
v -8 22 -10
v 9 22 -10

# faces
f 3/1/1 2/1/1 1/1/1
f 4/1/1 2/1/1 3/1/1
f 9/1/1 6/1/1 5/1/1
f 10/1/1 6/1/1 9/1/1
f 13/1/1 8/1/1 7/1/1
f 14/1/1 8/1/1 13/1/1
f 15/1/1 12/1/1 11/1/1
f 16/1/1 12/1/1 15/1/1
f 21/1/1 18/1/1 17/1/1
f 22/1/1 18/1/1 21/1/1
f 23/1/1 20/1/1 19/1/1
f 24/1/1 20/1/1 23/1/1
f 29/1/1 28/1/1 27/1/1
f 31/1/1 26/1/1 25/1/1
f 33/1/1 30/1/1 29/1/1
f 33/1/1 29/1/1 27/1/1
f 34/1/1 30/1/1 33/1/1
f 35/1/1 32/1/1 31/1/1
f 37/1/1 30/1/1 34/1/1
f 38/1/1 30/1/1 37/1/1
f 39/1/1 36/1/1 35/1/1
f 41/1/1 31/1/1 25/1/1
f 41/1/1 40/1/1 39/1/1
f 41/1/1 39/1/1 35/1/1
f 41/1/1 35/1/1 31/1/1
f 42/1/1 40/1/1 41/1/1
f 47/1/1 44/1/1 43/1/1
f 48/1/1 44/1/1 47/1/1
f 51/1/1 50/1/1 49/1/1
f 53/1/1 51/1/1 49/1/1
f 53/1/1 52/1/1 51/1/1
f 54/1/1 52/1/1 53/1/1
f 55/1/1 46/1/1 45/1/1
f 56/1/1 46/1/1 55/1/1
f 59/1/1 52/1/1 54/1/1
f 60/1/1 52/1/1 59/1/1
f 61/1/1 58/1/1 57/1/1
f 62/1/1 58/1/1 61/1/1
f 65/1/1 64/1/1 63/1/1
f 66/1/1 64/1/1 65/1/1
f 71/1/1 68/1/1 67/1/1
f 72/1/1 68/1/1 71/1/1
f 73/1/1 70/1/1 69/1/1
f 74/1/1 70/1/1 73/1/1
f 77/1/1 76/1/1 75/1/1
f 78/1/1 76/1/1 77/1/1
f 83/1/1 82/1/1 81/1/1
f 84/1/1 82/1/1 83/1/1
f 85/1/1 80/1/1 79/1/1
f 86/1/1 80/1/1 85/1/1
f 89/1/1 88/1/1 87/1/1
f 90/1/1 88/1/1 89/1/1
f 93/1/1 92/1/1 91/1/1
f 94/1/1 92/1/1 93/1/1
f 97/1/1 96/1/1 95/1/1
f 98/1/1 96/1/1 97/1/1
f 101/1/1 100/1/1 99/1/1
f 102/1/1 100/1/1 101/1/1
f 105/1/1 104/1/1 103/1/1
f 106/1/1 104/1/1 105/1/1
f 107/1/2 108/1/2 109/1/2
f 109/1/2 108/1/2 110/1/2
f 111/1/2 112/1/2 113/1/2
f 113/1/2 112/1/2 114/1/2
f 115/1/2 116/1/2 117/1/2
f 117/1/2 116/1/2 118/1/2
f 119/1/2 120/1/2 121/1/2
f 121/1/2 120/1/2 122/1/2
f 122/1/2 123/1/2 128/1/2
f 128/1/2 123/1/2 129/1/2
f 124/1/2 125/1/2 130/1/2
f 130/1/2 125/1/2 131/1/2
f 126/1/2 127/1/2 132/1/2
f 132/1/2 127/1/2 133/1/2
f 134/1/2 135/1/2 140/1/2
f 140/1/2 135/1/2 141/1/2
f 136/1/2 137/1/2 142/1/2
f 142/1/2 137/1/2 143/1/2
f 138/1/2 139/1/2 144/1/2
f 144/1/2 139/1/2 145/1/2
f 146/1/2 147/1/2 148/1/2
f 146/1/2 148/1/2 151/1/2
f 148/1/2 149/1/2 151/1/2
f 150/1/2 151/1/2 153/1/2
f 152/1/2 153/1/2 154/1/2
f 151/1/2 149/1/2 155/1/2
f 154/1/2 153/1/2 155/1/2
f 153/1/2 151/1/2 155/1/2
f 156/1/2 157/1/2 158/1/2
f 158/1/2 157/1/2 159/1/2
f 160/1/2 161/1/2 162/1/2
f 162/1/2 161/1/2 163/1/2
f 164/1/2 165/1/2 168/1/2
f 168/1/2 165/1/2 169/1/2
f 166/1/2 167/1/2 170/1/2
f 170/1/2 167/1/2 171/1/2
f 172/1/2 173/1/2 176/1/2
f 172/1/2 176/1/2 178/1/2
f 176/1/2 177/1/2 178/1/2
f 178/1/2 177/1/2 179/1/2
f 172/1/2 178/1/2 180/1/2
f 180/1/2 178/1/2 181/1/2
f 174/1/2 175/1/2 184/1/2
f 184/1/2 175/1/2 185/1/2
f 182/1/2 183/1/2 186/1/2
f 186/1/2 183/1/2 187/1/2
f 188/1/2 189/1/2 190/1/2
f 190/1/2 189/1/2 191/1/2
f 191/1/2 189/1/2 193/1/2
f 192/1/2 193/1/2 194/1/2
f 193/1/2 189/1/2 195/1/2
f 194/1/2 193/1/2 195/1/2
f 198/1/3 197/1/3 196/1/3
f 199/1/3 197/1/3 198/1/3
f 202/1/3 201/1/3 200/1/3
f 203/1/3 201/1/3 202/1/3
f 206/1/3 205/1/3 204/1/3
f 207/1/3 205/1/3 206/1/3
f 212/1/3 209/1/3 208/1/3
f 213/1/3 209/1/3 212/1/3
f 214/1/3 211/1/3 210/1/3
f 215/1/3 211/1/3 214/1/3
f 218/1/3 217/1/3 216/1/3
f 219/1/3 217/1/3 218/1/3
f 224/1/3 221/1/3 220/1/3
f 225/1/3 221/1/3 224/1/3
f 226/1/3 223/1/3 222/1/3
f 227/1/3 223/1/3 226/1/3
f 231/1/3 229/1/3 228/1/3
f 232/1/3 231/1/3 230/1/3
f 233/1/3 229/1/3 231/1/3
f 233/1/3 231/1/3 232/1/3
f 234/1/3 229/1/3 233/1/3
f 235/1/3 229/1/3 234/1/3
f 236/1/3 229/1/3 235/1/3
f 237/1/3 229/1/3 236/1/3
f 238/1/3 236/1/3 235/1/3
f 240/1/3 238/1/3 235/1/3
f 240/1/3 239/1/3 238/1/3
f 241/1/3 239/1/3 240/1/3
f 244/1/3 243/1/3 242/1/3
f 245/1/3 243/1/3 244/1/3
f 246/1/3 244/1/3 242/1/3
f 247/1/3 244/1/3 246/1/3
f 251/1/3 249/1/3 248/1/3
f 252/1/3 249/1/3 251/1/3
f 253/1/3 251/1/3 250/1/3
f 254/1/3 251/1/3 253/1/3
f 257/1/3 256/1/3 255/1/3
f 258/1/3 256/1/3 257/1/3
f 261/1/3 260/1/3 259/1/3
f 262/1/3 260/1/3 261/1/3
f 265/1/3 264/1/3 263/1/3
f 266/1/3 264/1/3 265/1/3
f 269/1/3 268/1/3 267/1/3
f 270/1/3 268/1/3 269/1/3
f 273/1/3 272/1/3 271/1/3
f 274/1/3 272/1/3 273/1/3
f 277/1/3 276/1/3 275/1/3
f 278/1/3 276/1/3 277/1/3
f 281/1/3 280/1/3 279/1/3
f 282/1/3 280/1/3 281/1/3
f 285/1/3 284/1/3 283/1/3
f 286/1/3 284/1/3 285/1/3
f 289/1/3 288/1/3 287/1/3
f 290/1/3 288/1/3 289/1/3
f 291/1/4 292/1/4 293/1/4
f 293/1/4 292/1/4 294/1/4
f 295/1/4 296/1/4 298/1/4
f 297/1/4 298/1/4 299/1/4
f 298/1/4 296/1/4 300/1/4
f 299/1/4 298/1/4 300/1/4
f 300/1/4 296/1/4 301/1/4
f 302/1/4 303/1/4 304/1/4
f 304/1/4 303/1/4 305/1/4
f 306/1/4 307/1/4 308/1/4
f 308/1/4 307/1/4 309/1/4
f 306/1/4 308/1/4 310/1/4
f 306/1/4 310/1/4 312/1/4
f 310/1/4 311/1/4 312/1/4
f 312/1/4 311/1/4 313/1/4
f 314/1/4 315/1/4 316/1/4
f 316/1/4 315/1/4 317/1/4
f 318/1/4 319/1/4 320/1/4
f 320/1/4 319/1/4 321/1/4
f 322/1/4 323/1/4 324/1/4
f 324/1/4 323/1/4 325/1/4
f 326/1/4 327/1/4 328/1/4
f 328/1/4 327/1/4 329/1/4
f 330/1/4 331/1/4 333/1/4
f 332/1/4 333/1/4 334/1/4
f 333/1/4 331/1/4 335/1/4
f 334/1/4 333/1/4 335/1/4
f 335/1/4 331/1/4 336/1/4
f 336/1/4 337/1/4 338/1/4
f 335/1/4 336/1/4 338/1/4
f 338/1/4 337/1/4 339/1/4
f 340/1/4 341/1/4 342/1/4
f 342/1/4 341/1/4 343/1/4
f 344/1/4 345/1/4 346/1/4
f 346/1/4 345/1/4 347/1/4
f 344/1/4 346/1/4 348/1/4
f 348/1/4 349/1/4 352/1/4
f 344/1/4 348/1/4 352/1/4
f 352/1/4 349/1/4 353/1/4
f 350/1/4 351/1/4 354/1/4
f 354/1/4 351/1/4 355/1/4
f 356/1/4 357/1/4 359/1/4
f 358/1/4 359/1/4 360/1/4
f 359/1/4 357/1/4 361/1/4
f 360/1/4 359/1/4 361/1/4
f 361/1/4 357/1/4 364/1/4
f 364/1/4 357/1/4 365/1/4
f 362/1/4 363/1/4 366/1/4
f 362/1/4 366/1/4 368/1/4
f 366/1/4 367/1/4 368/1/4
f 368/1/4 367/1/4 369/1/4
f 370/1/4 371/1/4 373/1/4
f 373/1/4 371/1/4 374/1/4
f 372/1/4 373/1/4 376/1/4
f 374/1/4 375/1/4 376/1/4
f 373/1/4 374/1/4 376/1/4
f 376/1/4 375/1/4 377/1/4
f 377/1/4 375/1/4 378/1/4
f 378/1/4 375/1/4 379/1/4
f 377/1/4 378/1/4 380/1/4
f 377/1/4 380/1/4 382/1/4
f 380/1/4 381/1/4 382/1/4
f 382/1/4 381/1/4 383/1/4
f 383/1/4 381/1/4 384/1/4
f 384/1/4 381/1/4 385/1/4
f 386/1/4 387/1/4 388/1/4
f 388/1/4 387/1/4 389/1/4
f 393/1/5 391/1/5 390/1/5
f 394/1/5 391/1/5 393/1/5
f 397/1/5 393/1/5 392/1/5
f 397/1/5 395/1/5 394/1/5
f 397/1/5 394/1/5 393/1/5
f 399/1/5 397/1/5 396/1/5
f 400/1/5 395/1/5 397/1/5
f 400/1/5 399/1/5 398/1/5
f 400/1/5 397/1/5 399/1/5
f 401/1/5 395/1/5 400/1/5
f 402/1/5 400/1/5 398/1/5
f 403/1/5 400/1/5 402/1/5
f 405/1/5 402/1/5 398/1/5
f 407/1/5 405/1/5 404/1/5
f 408/1/5 402/1/5 405/1/5
f 408/1/5 407/1/5 406/1/5
f 408/1/5 405/1/5 407/1/5
f 410/1/5 408/1/5 406/1/5
f 410/1/5 409/1/5 408/1/5
f 411/1/5 409/1/5 410/1/5
f 412/1/5 409/1/5 411/1/5
f 413/1/5 409/1/5 412/1/5
f 414/1/5 409/1/5 413/1/5
f 415/1/5 409/1/5 414/1/5
f 416/1/5 409/1/5 415/1/5
f 417/1/5 409/1/5 416/1/5
f 420/1/5 419/1/5 418/1/5
f 421/1/5 419/1/5 420/1/5
f 424/1/5 423/1/5 422/1/5
f 425/1/5 423/1/5 424/1/5
f 428/1/5 427/1/5 426/1/5
f 429/1/5 427/1/5 428/1/5
f 432/1/5 431/1/5 430/1/5
f 433/1/5 431/1/5 432/1/5
f 436/1/5 435/1/5 434/1/5
f 437/1/5 435/1/5 436/1/5
f 438/1/6 439/1/6 440/1/6
f 440/1/6 439/1/6 441/1/6
f 442/1/6 443/1/6 445/1/6
f 444/1/6 445/1/6 447/1/6
f 446/1/6 447/1/6 448/1/6
f 445/1/6 443/1/6 449/1/6
f 448/1/6 447/1/6 449/1/6
f 447/1/6 445/1/6 449/1/6
f 450/1/6 451/1/6 452/1/6
f 452/1/6 451/1/6 453/1/6
f 454/1/6 455/1/6 457/1/6
f 457/1/6 455/1/6 458/1/6
f 458/1/6 455/1/6 459/1/6
f 456/1/6 457/1/6 460/1/6
f 457/1/6 458/1/6 460/1/6
f 460/1/6 458/1/6 461/1/6
f 456/1/6 460/1/6 462/1/6
f 456/1/6 462/1/6 464/1/6
f 462/1/6 463/1/6 464/1/6
f 464/1/6 463/1/6 465/1/6
f 465/1/6 463/1/6 466/1/6
f 466/1/6 467/1/6 470/1/6
f 465/1/6 466/1/6 470/1/6
f 470/1/6 467/1/6 471/1/6
f 468/1/6 469/1/6 472/1/6
f 472/1/6 469/1/6 473/1/6
f 474/1/6 475/1/6 477/1/6
f 476/1/6 477/1/6 478/1/6
f 477/1/6 475/1/6 479/1/6
f 478/1/6 477/1/6 479/1/6
f 479/1/6 475/1/6 480/1/6
f 480/1/6 475/1/6 481/1/6
f 482/1/6 483/1/6 484/1/6
f 484/1/6 483/1/6 485/1/6
f 486/1/6 487/1/6 488/1/6
f 488/1/6 487/1/6 489/1/6
f 490/1/6 491/1/6 493/1/6
f 493/1/6 491/1/6 494/1/6
f 494/1/6 491/1/6 495/1/6
f 495/1/6 491/1/6 496/1/6
f 492/1/6 493/1/6 498/1/6
f 493/1/6 494/1/6 498/1/6
f 498/1/6 494/1/6 499/1/6
f 496/1/6 497/1/6 500/1/6
f 495/1/6 496/1/6 500/1/6
f 500/1/6 497/1/6 501/1/6
f 492/1/6 498/1/6 502/1/6
f 502/1/6 498/1/6 503/1/6
f 501/1/6 497/1/6 505/1/6
f 504/1/6 505/1/6 508/1/6
f 505/1/6 497/1/6 509/1/6
f 508/1/6 505/1/6 509/1/6
f 509/1/6 497/1/6 510/1/6
f 506/1/6 507/1/6 511/1/6
f 511/1/6 507/1/6 512/1/6
f 508/1/6 509/1/6 513/1/6
f 513/1/6 509/1/6 514/1/6
f 515/1/6 516/1/6 518/1/6
f 518/1/6 516/1/6 519/1/6
f 517/1/6 518/1/6 521/1/6
f 519/1/6 520/1/6 521/1/6
f 518/1/6 519/1/6 521/1/6
f 521/1/6 520/1/6 522/1/6
f 522/1/6 520/1/6 523/1/6
f 523/1/6 520/1/6 524/1/6
f 522/1/6 523/1/6 525/1/6
f 525/1/6 523/1/6 526/1/6
f 527/1/6 528/1/6 529/1/6
f 529/1/6 528/1/6 530/1/6
f 531/1/6 532/1/6 533/1/6
f 533/1/6 532/1/6 534/1/6
f 535/1/6 536/1/6 540/1/6
f 540/1/6 536/1/6 541/1/6
f 541/1/6 536/1/6 542/1/6
f 537/1/6 538/1/6 543/1/6
f 539/1/6 540/1/6 544/1/6
f 540/1/6 541/1/6 544/1/6
f 544/1/6 541/1/6 545/1/6
f 542/1/6 543/1/6 546/1/6
f 543/1/6 538/1/6 547/1/6
f 546/1/6 543/1/6 547/1/6
f 547/1/6 538/1/6 549/1/6
f 548/1/6 549/1/6 550/1/6
f 549/1/6 538/1/6 551/1/6
f 550/1/6 549/1/6 551/1/6
f 539/1/6 544/1/6 552/1/6
f 551/1/6 538/1/6 555/1/6
f 552/1/6 553/1/6 556/1/6
f 539/1/6 552/1/6 556/1/6
f 556/1/6 553/1/6 557/1/6
f 557/1/6 553/1/6 558/1/6
f 554/1/6 555/1/6 561/1/6
f 555/1/6 538/1/6 562/1/6
f 561/1/6 555/1/6 562/1/6
f 562/1/6 538/1/6 563/1/6
f 558/1/6 559/1/6 564/1/6
f 557/1/6 558/1/6 564/1/6
f 564/1/6 559/1/6 565/1/6
f 560/1/6 561/1/6 566/1/6
f 561/1/6 562/1/6 566/1/6
f 566/1/6 562/1/6 567/1/6
f 568/1/6 569/1/6 571/1/6
f 571/1/6 569/1/6 572/1/6
f 570/1/6 571/1/6 574/1/6
f 572/1/6 573/1/6 574/1/6
f 571/1/6 572/1/6 574/1/6
f 574/1/6 573/1/6 575/1/6
f 570/1/6 574/1/6 576/1/6
f 570/1/6 576/1/6 578/1/6
f 576/1/6 577/1/6 578/1/6
f 578/1/6 577/1/6 579/1/6
f 579/1/6 577/1/6 580/1/6
f 580/1/6 577/1/6 581/1/6
f 579/1/6 580/1/6 582/1/6
f 582/1/6 580/1/6 583/1/6
