%YAML 1.1
%TAG !u! tag:unity3d.com,2011:
--- !u!114 &11400000
MonoBehaviour:
  m_ObjectHideFlags: 0
  m_CorrespondingSourceObject: {fileID: 0}
  m_PrefabInstance: {fileID: 0}
  m_PrefabAsset: {fileID: 0}
  m_GameObject: {fileID: 0}
  m_Enabled: 1
  m_EditorHideFlags: 0
  m_Script: {fileID: 11500000, guid: dc38003c0e0db6641a4762d4f392de52, type: 3}
  m_Name: Default
  m_EditorClassIdentifier: 
  prefabs:
  - gameObject: {fileID: 100002, guid: 4f4b26bafe28cac498be18184c72a3b1, type: 3}
    settings:
      rotationRange: {x: 0, y: 0}
      scaleRange: {x: 0, y: 0}
  - gameObject: {fileID: 100000, guid: 8976e07b5e682f948a8598e6e9623648, type: 3}
    settings:
      rotationRange: {x: 0, y: 0}
      scaleRange: {x: 0, y: 0}
  - gameObject: {fileID: 100000, guid: 374a639c27c9e314f9ecdecd84404452, type: 3}
    settings:
      rotationRange: {x: 0, y: 0}
      scaleRange: {x: 0, y: 0}
  - gameObject: {fileID: 100002, guid: c19dd9f697c20ed40ac9c5cdc5464bd9, type: 3}
    settings:
      rotationRange: {x: 0, y: 0}
      scaleRange: {x: 0, y: 0}
  - gameObject: {fileID: 100002, guid: eef00dc7a835573498e34c31df3459fc, type: 3}
    settings:
      rotationRange: {x: 0, y: 0}
      scaleRange: {x: 0, y: 0}
  - gameObject: {fileID: 100002, guid: 3432295d6cd22a6468a3da4998737aee, type: 3}
    settings:
      rotationRange: {x: 0, y: 0}
      scaleRange: {x: 0, y: 0}
  - gameObject: {fileID: 100000, guid: 8359a04f9f812a74ea47b9291c5b7cc9, type: 3}
    settings:
      rotationRange: {x: 0, y: 0}
      scaleRange: {x: 0, y: 0}
  - gameObject: {fileID: 100000, guid: 28ac691af70b793438b838798efd3dfd, type: 3}
    settings:
      rotationRange: {x: 0, y: 0}
      scaleRange: {x: 0, y: 0}
